<svg width="41" height="40" viewBox="0 0 41 40" fill="none" xmlns="http://www.w3.org/2000/svg">
<circle cx="20.2031" cy="20" r="20" fill="#00CB82"/>
<path d="M11.0371 14.3333C11.0371 14.3333 13.3288 12.5 15.6204 12.5C17.9121 12.5 20.2038 14.3333 20.2038 14.3333V27.5C20.2038 27.5 17.9121 25.6667 15.6204 25.6667C13.3288 25.6667 11.0371 27.5 11.0371 27.5V14.3333Z" fill="white"/>
<path d="M20.2038 14.3333C20.2038 14.3333 22.4954 12.5 24.7871 12.5C27.0788 12.5 29.3704 14.3333 29.3704 14.3333V27.5C29.3704 27.5 27.0788 25.6667 24.7871 25.6667C22.4954 25.6667 20.2038 27.5 20.2038 27.5V14.3333Z" fill="white"/>
</svg>
