<svg width="207" height="207" viewBox="0 0 207 207" fill="none"
    xmlns="http://www.w3.org/2000/svg">
    <path d="
    M
    0.5 18.2148
    C
        0.5 8.27372 
        8.55888 0.214844 
        18.5 0.214844
    H
        76.9067
    C
        78.0112 0.214844 
        78.9067 1.11027 
        78.9067 2.21484
    V
        4.21484
    C
        78.9067 5.31941 
        78.0112 6.21484 
        76.9067 6.21484
    H
        18.5C11.8726 6.21484 
        6.5 11.5874 6.5 18.2148V76.3509C6.5 77.4554 5.60457 78.3509 4.5 78.3509H2.5C1.39543 78.3509 0.5 77.4554 0.5 76.3509V18.2148Z" fill="white"/>
    <path d="M206.313 18.2148C206.313 8.27372 198.254 0.214844 188.313 0.214844H129.907C128.802 0.214844 127.907 1.11027 127.907 2.21484V4.21484C127.907 5.31941 128.802 6.21484 129.907 6.21484H188.313C194.941 6.21484 200.313 11.5874 200.313 18.2148V76.3509C200.313 77.4554 201.209 78.3509 202.313 78.3509H204.313C205.418 78.3509 206.313 77.4554 206.313 76.3509V18.2148Z" fill="white"/>
    <path d="M206.313 188.486C206.313 198.427 198.254 206.486 188.313 206.486H129.907C128.802 206.486 127.907 205.591 127.907 204.486V202.486C127.907 201.382 128.802 200.486 129.907 200.486H188.313C194.941 200.486 200.313 195.114 200.313 188.486V130.35C200.313 129.246 201.209 128.35 202.313 128.35H204.313C205.418 128.35 206.313 129.246 206.313 130.35V188.486Z" fill="white"/>
    <path d="M0.5 188.486C0.5 198.427 8.55888 206.486 18.5 206.486H76.9067C78.0112 206.486 78.9067 205.591 78.9067 204.486V202.486C78.9067 201.382 78.0112 200.486 76.9067 200.486H18.5C11.8726 200.486 6.5 195.114 6.5 188.486V130.35C6.5 129.246 5.60457 128.35 4.5 128.35H2.5C1.39543 128.35 0.5 129.246 0.5 130.35V188.486Z" fill="white"/>
</svg>

<svg width="83" height="83" viewBox="0 0 83 83" fill="none" xmlns="http://www.w3.org/2000/svg">
<path d="
M
    80.4355 2.35032
V
    62.4863
C
    80.4355 72.4275 
    72.3767 80.4863 
    62.4355 80.4863
H
    2.02889" stroke="white" stroke-width="4" stroke-linecap="round"/>
</svg>

<svg width="83" height="83" viewBox="0 0 83 83" fill="none" xmlns="http://www.w3.org/2000/svg">
<path d="
M
    2.02881 80.4866
V
    20.3506
C
    2.02881 10.4095 
    10.0877 2.35059 
    20.0288 2.35059
H
    80.4355" stroke="white" stroke-width="4" stroke-linecap="round"/>
</svg>
