<svg width="136" height="140" viewBox="0 0 136 140" fill="none" xmlns="http://www.w3.org/2000/svg">
<path d="M67.8576 139.87C103.996 139.87 133.291 132.265 133.291 122.883C133.291 113.502 103.996 105.896 67.8576 105.896C31.7195 105.896 2.42383 113.502 2.42383 122.883C2.42383 132.265 31.7195 139.87 67.8576 139.87Z" fill="#5BEBF4"/>
<g opacity="0.4">
<path opacity="0.69" d="M71.9894 133.636C97.1099 132.368 117.231 126.526 116.931 120.587C116.631 114.649 96.0242 110.862 70.9037 112.131C45.7832 113.399 25.662 119.241 25.9618 125.18C26.2616 131.118 46.8689 134.905 71.9894 133.636Z" fill="black"/>
</g>
<path d="M24.8633 43.3486C24.8284 43.4628 24.7706 43.5716 24.7014 43.6778C24.3865 44.1069 23.8374 44.2223 23.462 43.9298L17.8275 39.4734C17.4635 39.1835 17.4212 38.6022 17.7399 38.1604C17.8897 37.9509 18.1039 37.8109 18.3403 37.7578C18.5768 37.7047 18.8051 37.7585 18.9833 37.8957L24.6177 42.3521C24.8792 42.577 24.9798 42.968 24.8633 43.3486ZM18.1447 38.6367C18.1098 38.7509 18.1319 38.8785 18.223 38.9408L23.8574 43.3972C23.9749 43.493 24.1466 43.4518 24.2502 43.313C24.3539 43.1742 24.3359 42.9931 24.2184 42.8974L18.5839 38.441C18.5232 38.3994 18.4548 38.3833 18.3899 38.3952C18.3137 38.4045 18.2486 38.4572 18.2064 38.5152C18.168 38.5606 18.1564 38.5987 18.1447 38.6367Z" fill="#9FAB85"/>
<path d="M29.6818 39.3498C29.6058 39.5962 29.4299 39.8192 29.2101 39.9527C28.7743 40.2075 28.2711 40.0635 28.0853 39.6239L24.841 32.1174C24.6551 31.6778 24.8522 31.1163 25.2879 30.8616C25.4928 30.7377 25.7304 30.7008 25.9376 30.7624C26.1448 30.824 26.3143 30.9693 26.4016 31.1878L29.6459 38.6943C29.7409 38.8882 29.7502 39.1281 29.6818 39.3498ZM25.3825 31.5968C25.3635 31.6584 25.363 31.7375 25.3922 31.7972L28.6254 39.3011C28.68 39.4327 28.8428 39.4839 28.9769 39.3964C29.1073 39.3212 29.1754 39.139 29.1096 39.0048L25.8653 31.4983C25.8361 31.4387 25.7809 31.3861 25.7143 31.3706C25.6476 31.355 25.5734 31.3641 25.5138 31.403C25.4504 31.4542 25.4053 31.5229 25.3825 31.5968Z" fill="#9FAB85"/>
<path d="M35.1274 37.7263C34.9976 38.1685 34.5926 38.4663 34.1976 38.4205C33.7568 38.3763 33.4777 37.9361 33.5651 37.4449L34.9366 30.1058C34.9821 29.8735 35.1017 29.6593 35.2813 29.5112C35.4609 29.3631 35.6759 29.2878 35.8945 29.3159C36.3353 29.3601 36.6144 29.8004 36.527 30.2915L35.1555 37.6307C35.1484 37.6546 35.1379 37.6904 35.1274 37.7263ZM35.4832 30.1375C35.4797 30.1495 35.4761 30.1614 35.4726 30.1734L34.1011 37.5126C34.0696 37.6586 34.165 37.7974 34.2955 37.8166C34.4259 37.8359 34.5598 37.7278 34.5948 37.5698L35.9663 30.2306C35.9978 30.0846 35.9024 29.9458 35.772 29.9266C35.705 29.9229 35.6415 29.9458 35.5852 29.9832C35.5394 30.0232 35.5007 30.0778 35.4832 30.1375Z" fill="#9FAB85"/>
<path d="M11.2978 35.698H7.01297L10.0404 32.6705C10.1625 32.5484 10.1625 32.3531 10.0404 32.231C9.91837 32.109 9.72305 32.109 9.60097 32.231L6.57349 35.2585V30.9736C6.57349 30.8027 6.427 30.6562 6.2561 30.6562C6.08519 30.6562 5.9387 30.8027 5.9387 30.9736V35.2585L2.92343 32.231C2.80135 32.109 2.60603 32.109 2.48396 32.231C2.36188 32.3531 2.36188 32.5484 2.48396 32.6705L5.51144 35.698H1.22658C1.05567 35.698 0.90918 35.8445 0.90918 36.0154C0.90918 36.1863 1.05567 36.3328 1.22658 36.3328H5.51144L2.48396 39.3603C2.36188 39.4823 2.36188 39.6776 2.48396 39.7997C2.545 39.8608 2.63045 39.8974 2.70369 39.8974C2.78915 39.8974 2.86239 39.8608 2.92343 39.7997L5.95091 36.7722V41.0571C5.95091 41.228 6.0974 41.3745 6.26831 41.3745C6.43921 41.3745 6.5857 41.228 6.5857 41.0571V36.7722L9.61318 39.7997C9.67422 39.8608 9.75967 39.8974 9.83292 39.8974C9.91837 39.8974 9.99162 39.8608 10.0527 39.7997C10.1747 39.6776 10.1747 39.4823 10.0527 39.3603L7.01297 36.3328H11.2978C11.4687 36.3328 11.6152 36.1863 11.6152 36.0154C11.6152 35.8445 11.4687 35.698 11.2978 35.698Z" fill="#FBB278"/>
<path d="M25.6295 7.95624C24.5186 7.95624 23.6152 7.05287 23.6152 5.94198C23.6152 4.8311 24.5186 3.92773 25.6295 3.92773C26.7404 3.92773 27.6437 4.8311 27.6437 5.94198C27.6315 7.05287 26.7282 7.95624 25.6295 7.95624ZM25.6295 4.6724C24.9214 4.6724 24.3477 5.24615 24.3477 5.95419C24.3477 6.66223 24.9214 7.23599 25.6295 7.23599C26.3375 7.23599 26.9113 6.66223 26.9113 5.95419C26.8991 5.24615 26.3253 4.6724 25.6295 4.6724Z" fill="#FFDA90"/>
<path d="M42.547 18.997C42.1564 18.997 41.7535 18.9115 41.3995 18.7162C40.7647 18.3744 40.3619 17.8372 39.9712 17.3123C39.7149 16.9705 39.4707 16.6531 39.1899 16.3967C38.2622 15.591 36.7118 15.6155 35.8084 16.4578C35.6253 16.6287 35.3323 16.6165 35.1614 16.4334C34.9905 16.2503 35.0027 15.9573 35.1858 15.7864C36.4188 14.6389 38.5307 14.6022 39.8003 15.7131C40.1665 16.0305 40.4473 16.409 40.7159 16.763C41.0699 17.2269 41.3995 17.6663 41.839 17.9105C42.5714 18.3011 43.6457 17.9837 44.0363 17.2513C44.1584 17.0315 44.4392 16.9461 44.6589 17.0682C44.8787 17.1902 44.9641 17.471 44.842 17.6908C44.3904 18.5087 43.4748 18.997 42.547 18.997Z" fill="#9FAB85"/>
<path d="M127.268 30.2757H122.104L125.754 26.6256C125.9 26.4791 125.9 26.235 125.754 26.0885C125.607 25.942 125.363 25.942 125.217 26.0885L121.567 29.7385V24.5747C121.567 24.3672 121.396 24.1963 121.188 24.1963C120.981 24.1963 120.81 24.3672 120.81 24.5747V29.7385L117.16 26.0885C117.013 25.942 116.769 25.942 116.623 26.0885C116.476 26.235 116.476 26.4791 116.623 26.6256L120.273 30.2757H115.109C114.901 30.2757 114.73 30.4466 114.73 30.6541C114.73 30.8616 114.901 31.0325 115.109 31.0325H120.273L116.635 34.6826C116.488 34.8291 116.488 35.0732 116.635 35.2197C116.708 35.293 116.806 35.3296 116.903 35.3296C117.001 35.3296 117.099 35.293 117.172 35.2197L120.822 31.5697V36.7335C120.822 36.941 120.993 37.1119 121.2 37.1119C121.408 37.1119 121.579 36.941 121.579 36.7335V31.5697L125.229 35.2197C125.302 35.293 125.4 35.3296 125.498 35.3296C125.595 35.3296 125.693 35.293 125.766 35.2197C125.913 35.0732 125.913 34.8291 125.766 34.6826L122.116 31.0325H127.28C127.487 31.0325 127.658 30.8616 127.658 30.6541C127.658 30.4466 127.475 30.2757 127.268 30.2757Z" fill="#FBB278"/>
<path d="M133.859 42.0324C132.736 42.0324 131.833 41.1168 131.833 40.006C131.833 38.8829 132.749 37.9795 133.859 37.9795C134.97 37.9795 135.886 38.8951 135.886 40.006C135.898 41.1291 134.983 42.0324 133.859 42.0324ZM133.859 38.7119C133.139 38.7119 132.565 39.2979 132.565 40.006C132.565 40.7262 133.151 41.3 133.859 41.3C134.568 41.3 135.153 40.714 135.153 40.006C135.166 39.2857 134.58 38.7119 133.859 38.7119Z" fill="#FFDA90"/>
<path d="M118.063 12.1839C118.051 12.1839 118.027 12.1839 118.014 12.1839C117.758 12.1595 117.575 11.9275 117.612 11.6712C117.795 9.99875 119.369 8.59488 121.042 8.59488H121.054C121.53 8.59488 121.994 8.69254 122.434 8.7902C123.007 8.91228 123.544 9.03435 124.033 8.92448C124.851 8.74137 125.449 7.80138 125.266 6.98348C125.217 6.73932 125.363 6.48296 125.62 6.43413C125.864 6.3853 126.12 6.53179 126.169 6.78815C126.462 8.10657 125.559 9.52265 124.24 9.82784C123.544 9.98654 122.885 9.84005 122.238 9.69356C121.823 9.60811 121.433 9.51045 121.054 9.51045C121.054 9.51045 121.054 9.51045 121.042 9.51045C119.809 9.51045 118.661 10.5359 118.527 11.7566C118.491 12.013 118.295 12.1839 118.063 12.1839Z" fill="#9FAB85"/>
<path d="M18.8008 94.7161H13.637L17.2871 91.066C17.4336 90.9195 17.4336 90.6754 17.2871 90.5289C17.1406 90.3824 16.8965 90.3824 16.75 90.5289L13.0999 94.179V89.0152C13.0999 88.8076 12.929 88.6367 12.7215 88.6367C12.5139 88.6367 12.343 88.8076 12.343 89.0152V94.179L8.69298 90.5289C8.54648 90.3824 8.30234 90.3824 8.15585 90.5289C8.00936 90.6754 8.00936 90.9195 8.15585 91.066L11.8059 94.7161H6.6421C6.43457 94.7161 6.26367 94.887 6.26367 95.0945C6.26367 95.3021 6.43457 95.473 6.6421 95.473H11.8059L8.16805 99.123C8.02156 99.2695 8.02156 99.5137 8.16805 99.6602C8.2413 99.7334 8.33896 99.77 8.43662 99.77C8.53428 99.77 8.63194 99.7334 8.70519 99.6602L12.3552 96.0101V101.174C12.3552 101.381 12.5262 101.552 12.7337 101.552C12.9412 101.552 13.1121 101.381 13.1121 101.174V96.0101L16.7622 99.6602C16.8354 99.7334 16.9331 99.77 17.0308 99.77C17.1284 99.77 17.2261 99.7334 17.2993 99.6602C17.4458 99.5137 17.4458 99.2695 17.2993 99.123L13.6493 95.473H18.8131C19.0206 95.473 19.1915 95.3021 19.1915 95.0945C19.1915 94.887 19.0084 94.7161 18.8008 94.7161Z" fill="#FBB278"/>
<path d="M129.805 89.0217C128.682 89.0217 127.779 88.1061 127.779 86.9952C127.779 85.8721 128.694 84.9688 129.805 84.9688C130.916 84.9688 131.832 85.8843 131.832 86.9952C131.844 88.1183 130.928 89.0217 129.805 89.0217ZM129.805 85.7012C129.085 85.7012 128.511 86.2872 128.511 86.9952C128.511 87.7155 129.097 88.2892 129.805 88.2892C130.513 88.2892 131.099 87.7033 131.099 86.9952C131.111 86.275 130.526 85.7012 129.805 85.7012Z" fill="#FFDA90"/>
<path d="M56.1407 61.9773H29.6901C28.7815 61.9773 28.0449 61.2562 28.0449 60.3665V45.062C28.0449 44.1723 28.7815 43.4512 29.6901 43.4512H56.1407C57.0494 43.4512 57.7859 44.1723 57.7859 45.062V60.3664C57.7859 61.2562 57.0492 61.9773 56.1407 61.9773Z" fill="#424242"/>
<path d="M53.3585 60.0656H36.9025C36.1414 60.0656 35.5244 59.4615 35.5244 58.7162V47.4197C35.5244 46.6744 36.1414 46.0703 36.9025 46.0703H53.3584C54.1195 46.0703 54.7365 46.6744 54.7365 47.4197V58.7162C54.7365 59.4615 54.1196 60.0656 53.3585 60.0656Z" fill="black"/>
<path d="M31.6349 51.0818C32.4148 51.0818 33.047 50.4628 33.047 49.6991C33.047 48.9355 32.4148 48.3164 31.6349 48.3164C30.8549 48.3164 30.2227 48.9355 30.2227 49.6991C30.2227 50.4628 30.8549 51.0818 31.6349 51.0818Z" fill="#D5BBB7"/>
<path d="M31.6334 57.1121C32.4133 57.1121 33.0456 56.493 33.0456 55.7294C33.0456 54.9657 32.4133 54.3467 31.6334 54.3467C30.8535 54.3467 30.2212 54.9657 30.2212 55.7294C30.2212 56.493 30.8535 57.1121 31.6334 57.1121Z" fill="#D5BBB7"/>
<path d="M100.064 116.503C101.719 118.54 98.8313 119.726 96.6279 119.948C93.1039 120.303 83.1597 118.777 83.5539 115.95C83.9481 113.123 86.7337 108.25 86.7337 108.25C87.8129 108.394 92.173 110.64 92.173 110.64C93.2649 115.105 99.2408 115.491 100.064 116.503Z" fill="black"/>
<path d="M79.3722 116.503C81.0276 118.54 78.1399 119.726 75.9364 119.948C72.4125 120.303 62.4682 118.777 62.8625 115.95C63.2567 113.123 66.0422 108.25 66.0422 108.25C67.1215 108.394 71.4816 110.64 71.4816 110.64C72.5734 115.105 78.5494 115.491 79.3722 116.503Z" fill="black"/>
<path d="M88.9135 50.2531L68.9908 49.7324C63.8444 62.3839 64.1998 96.2507 56.9653 111.44C56.9653 111.44 60.1203 114.707 64.0554 114.915C67.9903 115.124 69.0743 113.782 72.8494 114.187C77.306 114.665 78.2782 117.307 87.318 116.578C96.3579 115.849 101.037 109.104 101.037 109.104C97.0765 101.09 96.3765 75.0989 88.9135 50.2531Z" fill="#515F8A"/>
<path d="M64.0561 115.11C64.0388 115.11 64.0212 115.108 64.0038 115.103C63.8983 115.075 63.8361 114.968 63.865 114.865C67.3512 102.386 70.2073 77.4939 73.3149 48.6492C73.3266 48.5427 73.4245 48.4652 73.5327 48.4767C73.6415 48.488 73.7205 48.5834 73.709 48.69C70.5995 77.5518 67.7412 102.46 64.2471 114.967C64.2229 115.053 64.1431 115.11 64.0561 115.11Z" fill="black"/>
<path d="M100.036 47.9993L88.7834 35.3476L86.939 24.4551C94.8415 28.3543 101.312 33.8997 104.844 42.8227C106.178 47.2197 103.568 50.0273 100.036 47.9993Z" fill="#EB7962"/>
<path d="M95.6941 35.9053C96.4775 34.6729 97.3875 33.4284 97.8305 32.0552C94.7202 28.9237 91.0218 26.4682 86.9395 24.4541L88.7839 35.3466L93.9382 41.1417C93.8269 39.2707 94.6617 37.5295 95.6941 35.9053Z" fill="black"/>
<path d="M53.0715 45.3665C52.0351 51.0378 57.012 50.2363 62.1947 46.2448L67.2064 37.2486L65.4826 26.1045C58.1128 32.7082 53.6648 40.8843 53.0715 45.3665Z" fill="#EB7962"/>
<path d="M61.1144 38.996C62.3169 40.1938 63.2552 41.6714 63.859 43.2562L67.2068 37.2468L65.4829 26.1025C62.0971 29.1364 59.33 32.5017 57.2681 35.6886C58.4678 36.8759 59.9031 37.7894 61.1144 38.996Z" fill="black"/>
<path d="M86.9384 24.4537L86.9389 24.4564C82.9027 22.2096 71.3176 22.6072 65.4808 26.1018L56.9668 32.8387C58.0035 34.5821 63.3017 35.7691 66.2596 40.0306L67.539 39.4085L69.0982 50.0473C76.6297 52.4331 83.0054 51.9265 88.915 50.2533C85.5163 45.8887 89.5563 41.6425 90.1442 37.6894L90.532 37.9932C92.3099 34.6479 96.8607 31.4361 96.8607 29.3159L86.9384 24.4537Z" fill="#E48C56"/>
<path d="M90.2877 38.1234C90.1816 38.1234 90.0938 38.0412 90.0899 37.9368C90.0284 36.3447 89.7836 34.8875 88.6674 31.7519C88.6313 31.6508 88.6859 31.5402 88.7891 31.5049C88.8927 31.4699 89.0056 31.523 89.0414 31.6243C90.1684 34.7899 90.4245 36.3306 90.4859 37.9222C90.49 38.0292 90.4048 38.1192 90.2955 38.1234C90.2928 38.1232 90.2903 38.1234 90.2877 38.1234Z" fill="black"/>
<path d="M67.5386 39.603C67.5224 39.603 67.5059 39.601 67.4894 39.5969C67.3833 39.5704 67.3194 39.4648 67.3465 39.3609C67.6826 38.0742 67.6715 35.6128 67.3135 32.0449C67.3028 31.9383 67.3823 31.8434 67.4912 31.8329C67.6001 31.8228 67.697 31.9003 67.7077 32.007C68.0703 35.6199 68.078 38.1265 67.7303 39.457C67.7076 39.5447 67.627 39.603 67.5386 39.603Z" fill="black"/>
<path d="M74.6451 22.1988C74.5578 22.1347 74.4334 22.1521 74.3678 22.2377C72.5478 24.6172 72.1051 27.8151 72.0543 30.0789C72.0517 30.1861 72.1385 30.2748 72.2479 30.2772C72.2494 30.2772 72.2508 30.2772 72.2524 30.2772C72.3597 30.2772 72.4479 30.1931 72.4503 30.0875C72.4998 27.8804 72.9277 24.7673 74.6848 22.4702C74.7505 22.3846 74.7327 22.2631 74.6451 22.1988Z" fill="black"/>
<path d="M85.3606 29.6651C84.4671 27.0065 82.8975 23.5508 80.4934 22.1855C80.3988 22.1317 80.2775 22.1631 80.2225 22.2559C80.1677 22.3485 80.1999 22.4672 80.2945 22.521C82.591 23.8252 84.1123 27.1918 84.9843 29.7864C85.0118 29.868 85.0892 29.9198 85.1725 29.9198C85.193 29.9198 85.2139 29.9167 85.2345 29.91C85.3384 29.8765 85.3948 29.7669 85.3606 29.6651Z" fill="black"/>
<path d="M97.0781 91.4225C91.8966 93.7197 90.1958 94.4479 85.8344 94.4916C81.8835 94.5311 77.0641 90.2631 73.5098 90.0722C65.3745 89.6353 57.8037 89.6749 55.0815 86.0935C61.6374 76.3495 66.7097 53.1445 71.6273 30.384C71.7291 29.9128 72.2443 29.6506 72.6978 29.8371C78.1582 32.0815 81.6946 31.7288 84.5518 29.4873C84.8841 29.2266 85.3776 29.3274 85.5684 29.7C92.9477 44.1108 93.3119 68.6546 97.0781 91.4225Z" fill="#BB4F50"/>
<path d="M73.9321 36.564C74.8291 36.564 75.5562 35.8521 75.5562 34.9739C75.5562 34.0957 74.8291 33.3838 73.9321 33.3838C73.0352 33.3838 72.3081 34.0957 72.3081 34.9739C72.3081 35.8521 73.0352 36.564 73.9321 36.564Z" fill="#E48C56"/>
<path d="M83.6865 35.9791C84.5835 35.9791 85.3106 35.2671 85.3106 34.3889C85.3106 33.5107 84.5835 32.7988 83.6865 32.7988C82.7896 32.7988 82.0625 33.5107 82.0625 34.3889C82.0625 35.2671 82.7896 35.9791 83.6865 35.9791Z" fill="#E48C56"/>
<path d="M79.8306 42.0289C80.7275 42.0289 81.4546 41.3169 81.4546 40.4387C81.4546 39.5606 80.7275 38.8486 79.8306 38.8486C78.9336 38.8486 78.2065 39.5606 78.2065 40.4387C78.2065 41.3169 78.9336 42.0289 79.8306 42.0289Z" fill="#E48C56"/>
<path d="M73.1929 47.6627C74.0898 47.6627 74.8169 46.9507 74.8169 46.0725C74.8169 45.1943 74.0898 44.4824 73.1929 44.4824C72.2959 44.4824 71.5688 45.1943 71.5688 46.0725C71.5688 46.9507 72.2959 47.6627 73.1929 47.6627Z" fill="#E48C56"/>
<path d="M86.4453 48.3482C87.3422 48.3482 88.0694 47.6363 88.0694 46.7581C88.0694 45.8799 87.3422 45.168 86.4453 45.168C85.5484 45.168 84.8213 45.8799 84.8213 46.7581C84.8213 47.6363 85.5484 48.3482 86.4453 48.3482Z" fill="#E48C56"/>
<path d="M79.8306 53.2486C80.7275 53.2486 81.4546 52.5367 81.4546 51.6585C81.4546 50.7803 80.7275 50.0684 79.8306 50.0684C78.9336 50.0684 78.2065 50.7803 78.2065 51.6585C78.2065 52.5367 78.9336 53.2486 79.8306 53.2486Z" fill="#E48C56"/>
<path d="M72.519 58.9273C73.416 58.9273 74.1431 58.2154 74.1431 57.3372C74.1431 56.459 73.416 55.7471 72.519 55.7471C71.6221 55.7471 70.895 56.459 70.895 57.3372C70.895 58.2154 71.6221 58.9273 72.519 58.9273Z" fill="#E48C56"/>
<path d="M85.7202 59.2867C86.6172 59.2867 87.3443 58.5748 87.3443 57.6966C87.3443 56.8184 86.6172 56.1064 85.7202 56.1064C84.8233 56.1064 84.0962 56.8184 84.0962 57.6966C84.0962 58.5748 84.8233 59.2867 85.7202 59.2867Z" fill="#E48C56"/>
<path d="M79.4927 65.1588C80.3896 65.1588 81.1167 64.4468 81.1167 63.5686C81.1167 62.6904 80.3896 61.9785 79.4927 61.9785C78.5958 61.9785 77.8687 62.6904 77.8687 63.5686C77.8687 64.4468 78.5958 65.1588 79.4927 65.1588Z" fill="#E48C56"/>
<path d="M72.2583 71.5367C73.1552 71.5367 73.8823 70.8248 73.8823 69.9466C73.8823 69.0684 73.1552 68.3564 72.2583 68.3564C71.3614 68.3564 70.6343 69.0684 70.6343 69.9466C70.6343 70.8248 71.3614 71.5367 72.2583 71.5367Z" fill="#E48C56"/>
<path d="M85.7202 71.9615C86.6172 71.9615 87.3443 71.2496 87.3443 70.3714C87.3443 69.4932 86.6172 68.7812 85.7202 68.7812C84.8233 68.7812 84.0962 69.4932 84.0962 70.3714C84.0962 71.2496 84.8233 71.9615 85.7202 71.9615Z" fill="#E48C56"/>
<path d="M91.167 65.8013C92.0639 65.8013 92.791 65.0894 92.791 64.2112C92.791 63.333 92.0639 62.6211 91.167 62.6211C90.2701 62.6211 89.543 63.333 89.543 64.2112C89.543 65.0894 90.2701 65.8013 91.167 65.8013Z" fill="#E48C56"/>
<path d="M66.5669 64.2125C67.4638 64.2125 68.1909 63.5005 68.1909 62.6223C68.1909 61.7441 67.4638 61.0322 66.5669 61.0322C65.67 61.0322 64.9429 61.7441 64.9429 62.6223C64.9429 63.5005 65.67 64.2125 66.5669 64.2125Z" fill="#E48C56"/>
<path d="M78.9995 78.357C79.8964 78.357 80.6235 77.6451 80.6235 76.7669C80.6235 75.8887 79.8964 75.1768 78.9995 75.1768C78.1026 75.1768 77.3755 75.8887 77.3755 76.7669C77.3755 77.6451 78.1026 78.357 78.9995 78.357Z" fill="#E48C56"/>
<path d="M70.8921 83.8267C71.789 83.8267 72.5161 83.1148 72.5161 82.2366C72.5161 81.3584 71.789 80.6465 70.8921 80.6465C69.9952 80.6465 69.2681 81.3584 69.2681 82.2366C69.2681 83.1148 69.9952 83.8267 70.8921 83.8267Z" fill="#E48C56"/>
<path d="M64.5684 77.2193C65.4653 77.2193 66.1924 76.5074 66.1924 75.6292C66.1924 74.751 65.4653 74.0391 64.5684 74.0391C63.6714 74.0391 62.9443 74.751 62.9443 75.6292C62.9443 76.5074 63.6714 77.2193 64.5684 77.2193Z" fill="#E48C56"/>
<path d="M92.4395 78.8101C93.3364 78.8101 94.0635 78.0982 94.0635 77.22C94.0635 76.3418 93.3364 75.6299 92.4395 75.6299C91.5425 75.6299 90.8154 76.3418 90.8154 77.22C90.8154 78.0982 91.5425 78.8101 92.4395 78.8101Z" fill="#E48C56"/>
<path d="M86.166 85.4185C87.0629 85.4185 87.79 84.7066 87.79 83.8284C87.79 82.9502 87.0629 82.2383 86.166 82.2383C85.2691 82.2383 84.542 82.9502 84.542 83.8284C84.542 84.7066 85.2691 85.4185 86.166 85.4185Z" fill="#E48C56"/>
<path d="M62.9424 88.149C63.8393 88.149 64.5664 87.4371 64.5664 86.5589C64.5664 85.6807 63.8393 84.9688 62.9424 84.9688C62.0455 84.9688 61.3184 85.6807 61.3184 86.5589C61.3184 87.4371 62.0455 88.149 62.9424 88.149Z" fill="#E48C56"/>
<path d="M78.4336 90.6607C79.3305 90.6607 80.0576 89.9488 80.0576 89.0706C80.0576 88.1924 79.3305 87.4805 78.4336 87.4805C77.5367 87.4805 76.8096 88.1924 76.8096 89.0706C76.8096 89.9488 77.5367 90.6607 78.4336 90.6607Z" fill="#E48C56"/>
<path d="M93.5879 91.817C94.4848 91.817 95.2119 91.105 95.2119 90.2268C95.2119 89.3486 94.4848 88.6367 93.5879 88.6367C92.691 88.6367 91.9639 89.3486 91.9639 90.2268C91.9639 91.105 92.691 91.817 93.5879 91.817Z" fill="#E48C56"/>
<path d="M82.7522 48.1441C81.4513 49.6271 75.6733 49.2078 72.0445 49.2078C68.4157 49.2078 64.937 40.7816 64.937 37.7617C64.937 37.7617 69.8647 37.9907 75.1149 41.1442C80.7583 44.5342 82.7522 48.1441 82.7522 48.1441Z" fill="#3F4D71"/>
<path d="M82.1287 48.6451C80.971 47.2885 79.672 46.0227 78.179 45.0205C76.5644 43.9368 74.8349 43.3098 72.934 42.8969C70.7424 42.4209 68.5225 42.0578 66.3696 41.4245C65.3192 41.1154 64.321 40.6974 63.3493 40.2227C61.0294 44.724 60.5251 51.0854 66.7627 54.3069C75.5732 58.857 80.8815 51.3791 82.34 48.9002C82.2694 48.8151 82.2005 48.729 82.1287 48.6451Z" fill="black"/>
<path d="M86.406 34.7845C86.1571 33.5178 85.376 32.9305 83.9636 33.1494C83.6145 33.2034 83.3014 33.3925 83.0995 33.6765L76.625 43.1746C74.9584 44.3156 70.6908 47.478 70.6507 49.9661C70.6387 50.7079 70.9952 51.3299 71.7107 51.8148C72.296 52.2115 72.8665 52.4104 73.4162 52.4104C73.7239 52.4104 74.0253 52.3479 74.3187 52.223C75.564 51.6927 76.6302 50.0549 77.4874 47.3551C77.875 46.1342 78.1303 44.9614 78.27 44.2351L78.3111 44.2608L85.8837 36.5908C86.327 36.0967 86.5329 35.4305 86.406 34.7845ZM71.0468 49.9724C71.0844 47.6355 75.4375 44.4609 76.9655 43.418L77.2033 43.5669C77.041 43.7458 76.8776 43.9267 76.7168 44.1032C74.485 46.5524 72.3731 48.8711 71.7039 51.3199C71.2546 50.9435 71.0383 50.5006 71.0468 49.9724ZM77.193 44.1624C76.0701 46.8089 74.4306 50.0224 72.2261 51.5716L72.3513 51.7424C72.2515 51.6914 72.1506 51.6335 72.0484 51.5687C72.645 49.1558 74.7671 46.8258 77.0125 44.3615C77.0722 44.2959 77.1331 44.2282 77.193 44.1624ZM74.1605 51.8673C73.644 52.0874 73.1078 52.0754 72.5351 51.8293C74.8951 50.1211 76.6002 46.6301 77.732 43.8981L77.9091 44.009C77.5843 45.7443 76.4397 50.897 74.1605 51.8673Z" fill="#F3E1DB"/>
<path d="M64.9376 37.7607C61.5083 42.0224 59.2648 50.4327 66.763 54.3052C77.2284 59.7101 82.7527 48.1431 82.7527 48.1431C77.1787 50.5582 66.0249 43.8575 64.9376 37.7607Z" fill="#515F8A"/>
<path d="M82.0609 56.68L81.6878 52.5045C81.6707 52.3138 81.4849 52.1822 81.2946 52.2262L78.0868 52.9669C77.941 53.0005 77.7907 53.0111 77.6415 52.9981L77.2862 52.9672L78.3014 52.0709C78.6888 51.7289 78.7258 51.1463 78.3845 50.7602C78.0839 50.4201 77.5792 50.3366 77.1812 50.5612L73.5021 52.6378C67.9939 49.4792 63.8912 44.2383 59.6781 42.0254L53.0303 47.7098C53.6019 50.866 62.7756 55.0547 70.8502 56.7772L76.829 58.8093C77.5304 58.9732 78.2306 58.9701 78.8565 58.6745L81.6754 57.3436C81.9322 57.2225 82.0857 56.9583 82.0609 56.68Z" fill="#EB7962"/>
<path d="M101.316 41.1709C96.0644 40.5154 90.836 41.037 86.4957 39.5736C85.4065 37.0324 84.2344 34.7451 82.6059 33.852C82.2755 33.6708 81.8647 33.7236 81.58 33.9681C79.4671 35.7828 78.6173 37.7345 78.2322 39.7363C78.1514 40.1564 78.2585 40.5934 78.5436 40.9173C79.559 42.0705 81.3494 43.0112 83.4787 43.8591C89.4532 48.3562 97.3205 53.2394 104.126 47.9512L101.316 41.1709Z" fill="#EB7962"/>
<path d="M101.316 41.3664C101.307 41.3664 101.298 41.3659 101.289 41.3647C98.5491 41.0057 96.2212 40.7676 93.7638 40.7708C93.7637 40.7708 93.7637 40.7708 93.7635 40.7708C93.6543 40.7708 93.5656 40.6842 93.5654 40.5771C93.5653 40.47 93.6539 40.383 93.7633 40.3829C96.2383 40.3786 98.586 40.6192 101.342 40.9801C101.45 40.9944 101.526 41.092 101.512 41.1982C101.498 41.2957 101.414 41.3664 101.316 41.3664Z" fill="black"/>
<path d="M76.4667 3.52835C75.2785 3.6005 74.2823 3.89132 73.4566 4.33924C72.7076 2.61219 71.2684 1.17556 69.334 0.460613C65.5776 -0.927781 61.3831 0.928324 59.9651 4.60627C58.5471 8.28421 60.4428 12.3912 64.1991 13.7796C66.3921 14.5901 68.7335 14.2933 70.5855 13.1753C71.4207 16.324 73.4207 18.7796 74.4518 18.7796C78.0874 18.7796 82.5846 13.993 83.4498 10.3084C84.7011 4.97958 80.8624 3.26119 76.4667 3.52835Z" fill="black"/>
<path d="M81.734 24.7911C81.2707 28.8599 74.2417 29.2662 73.5112 24.8932L74.6267 16.21L80.9448 18.56L81.734 24.7911Z" fill="#EB7962"/>
<path d="M77.3081 20.2933C78.3824 21.3289 79.7635 22.1098 81.4256 22.3508L80.9454 18.5596L75.0776 16.377C75.3675 17.6941 76.3796 19.3984 77.3081 20.2933Z" fill="black"/>
<path d="M83.4529 10.3097C84.4602 16.656 83.561 19.4505 82.207 19.5486C79.555 19.7409 77.0711 18.9114 74.6042 16.2118C74.6042 16.2118 73.6761 16.1589 73.0322 15.5724C72.3881 14.9858 71.9266 13.7627 72.8753 12.9669C73.6368 12.3281 75.0318 13.1792 75.0318 13.1792C79.7947 12.3888 80.0613 6.36426 80.0613 6.36426C80.0613 6.36426 80.8402 8.05317 81.5052 8.79734C82.4455 9.8494 83.4529 10.3097 83.4529 10.3097Z" fill="#EB7962"/>
<path d="M78.6399 15.3407C78.5832 16.2081 79.6305 17.0485 80.552 16.9358C81.5818 16.8097 81.9588 16.2103 82 15.083L78.6399 15.3407Z" fill="white"/>
<path d="M80.4004 15.2109C80.2988 15.2109 80.2122 15.1348 80.2034 15.0336C80.1939 14.927 80.2746 14.833 80.3835 14.8236L82.1102 14.677C82.1353 14.6749 82.1491 14.6598 82.1552 14.651C82.1613 14.6422 82.1701 14.624 82.1626 14.6005L81.0612 11.1979C81.028 11.0958 81.0859 10.9868 81.1902 10.9545C81.2947 10.922 81.4059 10.9788 81.4389 11.0808L82.5403 14.4832C82.5825 14.6133 82.5622 14.7529 82.4848 14.8664C82.4075 14.98 82.2835 15.0518 82.1445 15.0635L80.418 15.2102C80.4121 15.2107 80.4063 15.2109 80.4004 15.2109Z" fill="black"/>
<path d="M78.6398 12.9675C78.9311 12.9675 79.1673 12.7363 79.1673 12.451C79.1673 12.1658 78.9311 11.9346 78.6398 11.9346C78.3485 11.9346 78.1123 12.1658 78.1123 12.451C78.1123 12.7363 78.3485 12.9675 78.6398 12.9675Z" fill="black"/>
<path d="M82.8878 12.5984C83.1792 12.5984 83.4153 12.3671 83.4153 12.0819C83.4153 11.7967 83.1792 11.5654 82.8878 11.5654C82.5965 11.5654 82.3604 11.7967 82.3604 12.0819C82.3604 12.3671 82.5965 12.5984 82.8878 12.5984Z" fill="black"/>
<path d="M116.467 58.9727H86.1606V61.7775H116.467V58.9727Z" fill="black"/>
<path d="M112.381 58.9719H90.4106V50.9981C90.4106 50.0704 91.1787 49.3184 92.1262 49.3184H110.666C111.613 49.3184 112.381 50.0704 112.381 50.9981V58.9719H112.381Z" fill="#D7BBB5"/>
<path d="M91.3354 56.2855C91.79 56.2341 92.0273 55.4198 92.1369 55.0694C92.3671 54.334 92.4793 53.4741 93.0419 52.8905C93.4767 52.4395 94.2677 52.2621 94.7517 52.7356C95.1219 53.0978 95.2901 53.6726 95.4567 54.1426C95.806 55.1286 96.0105 56.4586 96.7228 57.2715C96.9894 57.5758 97.1165 57.4743 97.4027 57.1524C97.9968 56.4844 97.9282 55.5414 98.0341 54.7124C98.1351 53.9216 98.3514 53.0665 99.1446 52.68C99.8507 52.336 100.407 52.8101 100.694 53.4216C101.006 54.0865 101.134 55.3076 102.071 55.3972C102.951 55.4815 103.086 53.8521 103.306 53.2684C103.599 52.4908 104.258 51.8674 105.165 52.0146C105.92 52.1373 106.4 52.7941 106.697 53.4345C107.329 54.8011 107.241 56.5064 108.046 57.7819C108.664 58.7622 109.291 57.5832 109.403 56.926C109.539 56.131 109.425 55.3033 109.689 54.5263C109.95 53.7586 110.627 53.178 111.494 53.3975C111.839 53.4848 112.124 53.669 112.381 53.8938V50.9981C112.381 50.0704 111.613 49.3184 110.666 49.3184H92.1262C91.1787 49.3184 90.4106 50.0704 90.4106 50.9981V55.5037C90.6245 55.8561 90.957 56.3285 91.3354 56.2855Z" fill="#424242"/>
<path d="M94.5745 46.4941C92.752 47.1138 91.6771 48.1924 92.051 49.3185H95.626C95.9297 48.1555 94.0348 47.3226 94.5745 46.4941Z" fill="#D5BBB7"/>
<path d="M102.612 46.4941C100.789 47.1138 99.7142 48.1924 100.088 49.3185H103.663C103.967 48.1555 102.072 47.3226 102.612 46.4941Z" fill="#D5BBB7"/>
<path d="M109.73 46.4941C107.907 47.1138 106.832 48.1924 107.206 49.3185H110.781C111.085 48.1555 109.19 47.3226 109.73 46.4941Z" fill="#D5BBB7"/>
<path d="M52.6041 37.9291C52.5988 37.9291 52.5934 37.9289 52.588 37.9284L48.7857 37.6296C48.6767 37.621 48.5954 37.5274 48.6042 37.4207C48.6129 37.3141 48.7074 37.2335 48.8174 37.2429L52.6197 37.5418C52.7287 37.5503 52.81 37.6439 52.8012 37.7506C52.7929 37.852 52.7063 37.9291 52.6041 37.9291Z" fill="black"/>
<path d="M53.4387 36.2409C53.4011 36.2409 53.363 36.2304 53.3292 36.2085L49.8136 33.922C49.7225 33.8627 49.6976 33.7422 49.7583 33.653C49.8189 33.5638 49.9418 33.5396 50.033 33.5988L53.5486 35.8854C53.6397 35.9446 53.6645 36.0651 53.6039 36.1544C53.5658 36.2105 53.5029 36.2409 53.4387 36.2409Z" fill="black"/>
<path d="M55.0737 34.8592C54.9971 34.8592 54.9242 34.8155 54.8919 34.7423L53.4465 31.4782C53.4031 31.3799 53.4492 31.2656 53.5495 31.223C53.6502 31.1805 53.7667 31.2256 53.8101 31.3239L55.2555 34.5881C55.2989 34.6863 55.2528 34.8007 55.1524 34.8432C55.1267 34.8541 55.1 34.8592 55.0737 34.8592Z" fill="black"/>
<path d="M90.4767 13.5954C92.2157 13.5954 93.6253 12.2152 93.6253 10.5125C93.6253 8.80993 92.2157 7.42969 90.4767 7.42969C88.7378 7.42969 87.3281 8.80993 87.3281 10.5125C87.3281 12.2152 88.7378 13.5954 90.4767 13.5954Z" fill="#E58B50"/>
<path d="M94.4438 18.1002C95.6495 18.1002 96.6269 17.1432 96.6269 15.9627C96.6269 14.7822 95.6495 13.8252 94.4438 13.8252C93.2381 13.8252 92.2607 14.7822 92.2607 15.9627C92.2607 17.1432 93.2381 18.1002 94.4438 18.1002Z" fill="#E58B50"/>
<path d="M118.669 66.698H21.4977C20.0945 66.698 18.957 65.5842 18.957 64.2103C18.957 62.8364 20.0945 61.7227 21.4977 61.7227H118.669C120.072 61.7227 121.21 62.8364 121.21 64.2103C121.209 65.5842 120.072 66.698 118.669 66.698Z" fill="#506D64"/>
<path d="M60.058 66.6992H25.7671V121.267H60.058V66.6992Z" fill="#D5BBB7"/>
<path d="M115.334 66.6992H110.742V121.267H115.334V66.6992Z" fill="#6A977F"/>
<path d="M48.0425 101.03C47.9358 101.254 47.8275 101.496 47.7182 101.753C47.6949 101.808 47.6611 101.856 47.6276 101.905C47.2809 102.417 46.8617 101.927 46.9601 101.519C47.5777 98.9609 47.6012 96.8134 47.593 92.0152C47.5777 82.9788 37.2679 84.3231 38.7497 90.6026C39.5874 94.1524 39.6374 96.2661 40.1151 100.62C40.2184 101.561 39.0798 101.711 38.8037 100.839C37.9306 98.0836 37.6152 96.9234 37.2758 96.1285C35.7603 92.5796 29.5496 95.9087 31.947 100.513C33.4446 103.39 36.09 109.139 35.4523 111.862H42.7914H45.2145H48.7951C49.8166 108.893 51.2765 109.42 53.2378 104.618C55.3278 99.5026 49.6276 97.7139 48.0425 101.03ZM35.1043 101.006C33.739 101.006 33.7413 98.9318 35.1043 98.9318C36.4698 98.9317 36.4675 101.006 35.1043 101.006ZM37.5348 106.27C36.1695 106.27 36.1717 104.196 37.5348 104.196C38.9001 104.196 38.8978 106.27 37.5348 106.27ZM43.5741 97.9051C42.2087 97.9051 42.211 95.831 43.5741 95.831C44.9394 95.831 44.9371 97.9051 43.5741 97.9051ZM43.2057 90.0621C44.571 90.0621 44.5688 92.1362 43.2057 92.1362C41.8404 92.1362 41.8427 90.0621 43.2057 90.0621ZM43.5741 108.722C42.2087 108.722 42.211 106.648 43.5741 106.648C44.9394 106.648 44.9371 108.722 43.5741 108.722ZM43.6476 103.313C42.2823 103.313 42.2846 101.239 43.6476 101.239C45.0129 101.239 45.0107 103.313 43.6476 103.313ZM49.6132 105.188C48.2479 105.188 48.2502 103.114 49.6132 103.114C50.9785 103.114 50.9763 105.188 49.6132 105.188Z" fill="#6A967F"/>
<path d="M44.3464 121.267H40.8999C38.4079 121.267 36.2512 119.57 35.715 117.187L34.1611 110.282H51.0851L49.5312 117.187C48.995 119.57 46.8384 121.267 44.3464 121.267Z" fill="#BA4F50"/>
</svg>
