<svg width="139" height="114" viewBox="0 0 139 114" fill="none" xmlns="http://www.w3.org/2000/svg">
<path d="M14.868 40.3312H10.4185L13.5623 37.1874C13.6891 37.0606 13.6891 36.8578 13.5623 36.731C13.4355 36.6042 13.2327 36.6042 13.1059 36.731L9.9621 39.8748V35.4253C9.9621 35.2478 9.80998 35.0957 9.63251 35.0957C9.45503 35.0957 9.30291 35.2478 9.30291 35.4253V39.8748L6.17175 36.731C6.04498 36.6042 5.84215 36.6042 5.71538 36.731C5.58861 36.8578 5.58861 37.0606 5.71538 37.1874L8.85922 40.3312H4.40967C4.2322 40.3312 4.08008 40.4833 4.08008 40.6608C4.08008 40.8383 4.2322 40.9904 4.40967 40.9904H8.85922L5.71538 44.1342C5.58861 44.261 5.58861 44.4638 5.71538 44.5906C5.77877 44.654 5.8675 44.692 5.94356 44.692C6.0323 44.692 6.10836 44.654 6.17175 44.5906L9.31559 41.4468V45.8963C9.31559 46.0738 9.46771 46.2259 9.64518 46.2259C9.82266 46.2259 9.97478 46.0738 9.97478 45.8963V41.4468L13.1186 44.5906C13.182 44.654 13.2707 44.692 13.3468 44.692C13.4355 44.692 13.5116 44.654 13.575 44.5906C13.7017 44.4638 13.7017 44.261 13.575 44.1342L10.4185 40.9904H14.868C15.0455 40.9904 15.1976 40.8383 15.1976 40.6608C15.1976 40.4833 15.0455 40.3312 14.868 40.3312Z" fill="#FBB278"/>
<path d="M7.54577 72.9119C6.39218 72.9119 5.4541 71.9738 5.4541 70.8202C5.4541 69.6666 6.39218 68.7285 7.54577 68.7285C8.69936 68.7285 9.63744 69.6666 9.63744 70.8202C9.62476 71.9738 8.68668 72.9119 7.54577 72.9119ZM7.54577 69.5018C6.81052 69.5018 6.21471 70.0976 6.21471 70.8329C6.21471 71.5681 6.81052 72.1639 7.54577 72.1639C8.28102 72.1639 8.87683 71.5681 8.87683 70.8329C8.86415 70.0976 8.26835 69.5018 7.54577 69.5018Z" fill="#FFDA90"/>
<path d="M29.6378 31.6221C29.2321 31.6221 28.8138 31.5334 28.4462 31.3305C27.787 30.9756 27.3686 30.4178 26.963 29.8727C26.6968 29.5178 26.4432 29.1882 26.1517 28.922C25.1882 28.0853 23.5783 28.1106 22.6402 28.9853C22.45 29.1628 22.1458 29.1501 21.9683 28.96C21.7909 28.7698 21.8035 28.4656 21.9937 28.2881C23.274 27.0965 25.4671 27.0585 26.7855 28.2121C27.1658 28.5417 27.4574 28.9346 27.7363 29.3023C28.1039 29.784 28.4462 30.2403 28.9025 30.4939C29.6631 30.8995 30.7787 30.5699 31.1843 29.8093C31.3111 29.5812 31.6027 29.4924 31.8309 29.6192C32.059 29.7459 32.1478 30.0375 32.021 30.2657C31.552 31.115 30.6012 31.6221 29.6378 31.6221Z" fill="#9FAB85"/>
<path d="M29.6378 23.3575C29.2321 23.3575 28.8138 23.2687 28.4462 23.0659C27.787 22.7109 27.3686 22.1532 26.963 21.6081C26.6968 21.2531 26.4432 20.9235 26.1517 20.6573C25.1882 19.8206 23.5783 19.846 22.6402 20.7207C22.45 20.8982 22.1458 20.8855 21.9683 20.6953C21.7909 20.5052 21.8035 20.2009 21.9937 20.0235C23.274 18.8319 25.4671 18.7938 26.7855 19.9474C27.1658 20.277 27.4574 20.67 27.7363 21.0376C28.1039 21.5193 28.4462 21.9757 28.9025 22.2292C29.6631 22.6349 30.7787 22.3053 31.1843 21.5447C31.3111 21.3165 31.6027 21.2278 31.8309 21.3545C32.059 21.4813 32.1478 21.7729 32.021 22.001C31.552 22.8504 30.6012 23.3575 29.6378 23.3575Z" fill="#9FAB85"/>
<path d="M29.6383 15.6377C29.2326 15.6377 28.8143 15.549 28.4466 15.3462C27.7875 14.9912 27.3691 14.4334 26.9635 13.8883C26.6973 13.5334 26.4437 13.2038 26.1521 12.9376C25.1887 12.1009 23.5788 12.1263 22.6407 13.001C22.4505 13.1784 22.1463 13.1658 21.9688 12.9756C21.7913 12.7855 21.804 12.4812 21.9942 12.3037C23.2745 11.1121 25.4676 11.0741 26.786 12.2277C27.1663 12.5573 27.4579 12.9503 27.7367 13.3179C28.1044 13.7996 28.4466 14.256 28.903 14.5095C29.6636 14.9152 30.7792 14.5856 31.1848 13.825C31.3116 13.5968 31.6032 13.508 31.8313 13.6348C32.0595 13.7616 32.1483 14.0531 32.0215 14.2813C31.5525 15.1307 30.6017 15.6377 29.6383 15.6377Z" fill="#9FAB85"/>
<path d="M116.526 29.104H111.164L114.954 25.3137C115.106 25.1616 115.106 24.908 114.954 24.7559C114.802 24.6038 114.548 24.6038 114.396 24.7559L110.606 28.5463V23.184C110.606 22.9685 110.428 22.791 110.213 22.791C109.997 22.791 109.82 22.9685 109.82 23.184V28.5463L106.03 24.7559C105.877 24.6038 105.624 24.6038 105.472 24.7559C105.32 24.908 105.32 25.1616 105.472 25.3137L109.262 29.104H103.9C103.684 29.104 103.507 29.2815 103.507 29.497C103.507 29.7125 103.684 29.89 103.9 29.89H109.262L105.484 33.6804C105.332 33.8325 105.332 34.086 105.484 34.2381C105.56 34.3142 105.662 34.3522 105.763 34.3522C105.865 34.3522 105.966 34.3142 106.042 34.2381L109.833 30.4478V35.8101C109.833 36.0256 110.01 36.203 110.226 36.203C110.441 36.203 110.619 36.0256 110.619 35.8101V30.4478L114.409 34.2381C114.485 34.3142 114.586 34.3522 114.688 34.3522C114.789 34.3522 114.891 34.3142 114.967 34.2381C115.119 34.086 115.119 33.8325 114.967 33.6804L111.176 29.89H116.539C116.754 29.89 116.932 29.7125 116.932 29.497C116.932 29.2815 116.741 29.104 116.526 29.104Z" fill="#FBB278"/>
<path d="M130.874 62.738C129.708 62.738 128.77 61.7872 128.77 60.6336C128.77 59.4674 129.721 58.5293 130.874 58.5293C132.028 58.5293 132.979 59.4801 132.979 60.6336C132.991 61.7999 132.041 62.738 130.874 62.738ZM130.874 59.2899C130.126 59.2899 129.531 59.8984 129.531 60.6336C129.531 61.3816 130.139 61.9774 130.874 61.9774C131.61 61.9774 132.218 61.3689 132.218 60.6336C132.231 59.8857 131.622 59.2899 130.874 59.2899Z" fill="#FFDA90"/>
<path d="M91.197 13.6767C91.1844 13.6767 91.159 13.6767 91.1463 13.6767C90.8801 13.6514 90.69 13.4105 90.728 13.1443C90.9181 11.4076 92.5534 9.94977 94.2902 9.94977H94.3028C94.7972 9.94977 95.279 10.0512 95.7353 10.1526C96.3311 10.2794 96.8889 10.4061 97.396 10.292C98.2453 10.1019 98.8665 9.12578 98.6763 8.27643C98.6256 8.0229 98.7777 7.75668 99.044 7.70598C99.2975 7.65527 99.5637 7.80739 99.6144 8.0736C99.9186 9.4427 98.9806 10.9132 97.6115 11.2301C96.8889 11.3949 96.2044 11.2428 95.5325 11.0907C95.1015 11.0019 94.6958 10.9005 94.3028 10.9005C94.3028 10.9005 94.3028 10.9005 94.2902 10.9005C93.0098 10.9005 91.8182 11.9654 91.6787 13.2331C91.6407 13.4993 91.4379 13.6767 91.197 13.6767Z" fill="#9FAB85"/>
<path d="M85.3394 98.7359H79.9771L83.7674 94.9455C83.9196 94.7934 83.9196 94.5399 83.7674 94.3878C83.6153 94.2356 83.3618 94.2356 83.2097 94.3878L79.4193 98.1781V92.8158C79.4193 92.6003 79.2418 92.4229 79.0263 92.4229C78.8108 92.4229 78.6333 92.6003 78.6333 92.8158V98.1781L74.843 94.3878C74.6909 94.2356 74.4373 94.2356 74.2852 94.3878C74.1331 94.5399 74.1331 94.7934 74.2852 94.9455L78.0756 98.7359H72.7133C72.4978 98.7359 72.3203 98.9134 72.3203 99.1289C72.3203 99.3444 72.4978 99.5218 72.7133 99.5218H78.0756L74.2979 103.312C74.1458 103.464 74.1458 103.718 74.2979 103.87C74.3739 103.946 74.4754 103.984 74.5768 103.984C74.6782 103.984 74.7796 103.946 74.8557 103.87L78.646 100.08V105.442C78.646 105.657 78.8235 105.835 79.039 105.835C79.2545 105.835 79.432 105.657 79.432 105.442V100.08L83.2223 103.87C83.2984 103.946 83.3998 103.984 83.5012 103.984C83.6026 103.984 83.7041 103.946 83.7801 103.87C83.9322 103.718 83.9322 103.464 83.7801 103.312L79.9898 99.5218H85.352C85.5675 99.5218 85.745 99.3444 85.745 99.1289C85.745 98.9134 85.5549 98.7359 85.3394 98.7359Z" fill="#FBB278"/>
<path d="M136.519 94.82C135.353 94.82 134.415 93.8693 134.415 92.7157C134.415 91.5494 135.365 90.6113 136.519 90.6113C137.672 90.6113 138.623 91.5621 138.623 92.7157C138.636 93.8819 137.685 94.82 136.519 94.82ZM136.519 91.3719C135.771 91.3719 135.175 91.9804 135.175 92.7157C135.175 93.4636 135.784 94.0594 136.519 94.0594C137.254 94.0594 137.863 93.4509 137.863 92.7157C137.875 91.9677 137.267 91.3719 136.519 91.3719Z" fill="#FFDA90"/>
<path d="M138.446 110.829H0.363281C0.363281 110.829 1.0504 104.27 7.74869 104.439C2.768 97.3761 8.60749 87.9585 18.5672 94.6849C15.132 75.851 34.8827 78.5418 39.5201 85.6039C44.1574 92.6661 83.6579 98.7213 91.9022 89.6399C100.146 80.5585 111.309 83.5855 117.32 93.3397C122.301 87.6219 132.09 87.79 128.827 98.5532C134.495 94.8534 138.445 98.3851 136.04 107.467C139.648 106.625 138.446 110.829 138.446 110.829Z" fill="#9EDBC4"/>
<path d="M134.317 113.871H5.96973C5.96973 113.871 6.60821 107.583 12.8343 107.744C8.20485 100.973 13.6328 91.9434 22.8909 98.393C19.698 80.3353 38.0562 82.9153 42.3664 89.6861C46.6766 96.4568 83.3941 102.263 91.056 93.556C98.7178 84.8491 109.094 87.7511 114.682 97.1032C119.312 91.621 128.41 91.7822 125.377 102.102C130.645 98.5542 134.317 101.939 132.082 110.646C135.435 109.84 134.317 113.871 134.317 113.871Z" fill="#8FCCB3"/>
<path d="M28.2401 101.277V105.888L29.7619 104.179C29.8151 104.119 29.8903 104.082 29.9711 104.077C30.0518 104.072 30.1315 104.098 30.1926 104.15L30.2233 104.176C30.2843 104.229 30.3216 104.302 30.3272 104.381C30.3328 104.46 30.3062 104.538 30.2533 104.598L28.4176 106.658C28.3716 106.709 28.3089 106.743 28.2401 106.754V110.83H27.5534V101.83C27.5134 101.825 27.4747 101.813 27.4399 101.793L24.0027 99.849C23.9325 99.8095 23.8812 99.7443 23.8601 99.6678C23.8391 99.5913 23.8499 99.5097 23.8902 99.441C23.9306 99.3723 23.9972 99.3221 24.0753 99.3014C24.1535 99.2808 24.2368 99.2914 24.3069 99.3309L27.5534 101.166V96.5628C27.5534 96.4736 27.5896 96.3881 27.654 96.325C27.7184 96.262 27.8057 96.2266 27.8968 96.2266C27.9878 96.2266 28.0752 96.262 28.1396 96.325C28.204 96.3881 28.2401 96.4736 28.2401 96.5628V100.517L30.6116 97.8542C30.6405 97.8222 30.6761 97.7965 30.716 97.779C30.7558 97.7614 30.799 97.7524 30.8427 97.7525C30.9163 97.752 30.9876 97.778 31.0431 97.8253C31.1039 97.8778 31.141 97.9516 31.1464 98.0308C31.1517 98.1099 31.1249 98.1879 31.0718 98.2478L28.4634 101.178C28.4354 101.209 28.4011 101.234 28.3626 101.251C28.3241 101.268 28.2824 101.277 28.2401 101.277Z" fill="white"/>
<path d="M22.7049 88.0477L15.3284 92.2172C15.2538 92.2594 15.1713 92.2865 15.0858 92.2967V110.828H13.6119V102.864C13.4645 102.841 13.3298 102.769 13.2312 102.659L9.29172 98.2414C9.17878 98.1129 9.12215 97.9459 9.13413 97.7768C9.1461 97.6076 9.2257 97.4499 9.35567 97.3379L9.42367 97.2803C9.48845 97.225 9.56374 97.1827 9.64523 97.156C9.72671 97.1292 9.81279 97.1185 9.89852 97.1244C9.98426 97.1303 10.0679 97.1527 10.1448 97.1904C10.2217 97.2281 10.2902 97.2802 10.3464 97.3439L13.6119 101.006V91.115C13.521 91.1144 13.4313 91.0947 13.3489 91.0574C13.2664 91.02 13.1931 90.9658 13.1338 90.8983L7.53563 84.6157C7.42177 84.4872 7.36438 84.3198 7.37598 84.15C7.38758 83.9803 7.46722 83.8218 7.59755 83.7093C7.71577 83.6079 7.86777 83.5524 8.0249 83.5532C8.11911 83.5527 8.21236 83.5719 8.29834 83.6096C8.38431 83.6473 8.46103 83.7027 8.5233 83.7719L13.6119 89.4859V81.0019C13.6119 80.8105 13.6895 80.627 13.8277 80.4916C13.9659 80.3563 14.1534 80.2803 14.3488 80.2803C14.5443 80.2803 14.7317 80.3563 14.8699 80.4916C15.0081 80.627 15.0858 80.8105 15.0858 81.0019V90.8764L22.0502 86.9395C22.2005 86.8596 22.3767 86.8403 22.5413 86.8859C22.7059 86.9314 22.8459 87.038 22.9313 87.1831C23.0167 87.3282 23.0408 87.5002 22.9985 87.6625C22.9562 87.8248 22.8509 87.9644 22.7049 88.0517V88.0477Z" fill="white"/>
<path d="M128.437 96.3263L123.741 98.9804C123.694 99.0073 123.641 99.0245 123.587 99.031V110.828H122.649V105.758C122.555 105.743 122.469 105.697 122.406 105.627L119.899 102.815C119.827 102.733 119.791 102.627 119.798 102.519C119.806 102.412 119.857 102.311 119.939 102.24L119.983 102.203C120.024 102.168 120.072 102.141 120.124 102.124C120.176 102.107 120.23 102.1 120.285 102.104C120.339 102.108 120.393 102.122 120.442 102.146C120.491 102.17 120.534 102.203 120.57 102.244L122.649 104.575V98.2788C122.591 98.2784 122.534 98.2659 122.481 98.2421C122.429 98.2183 122.382 98.1838 122.344 98.1409L118.781 94.1416C118.708 94.0598 118.672 93.9532 118.679 93.8452C118.687 93.7371 118.737 93.6363 118.82 93.5646C118.895 93.5001 118.992 93.4648 119.092 93.4653C119.152 93.4649 119.212 93.4771 119.266 93.5012C119.321 93.5252 119.37 93.5604 119.409 93.6045L122.649 97.2418V91.8412C122.649 91.7193 122.698 91.6025 122.786 91.5164C122.874 91.4302 122.993 91.3818 123.118 91.3818C123.242 91.3818 123.362 91.4302 123.45 91.5164C123.537 91.6025 123.587 91.7193 123.587 91.8412V98.1269L128.02 95.6209C128.116 95.57 128.228 95.5577 128.333 95.5867C128.438 95.6157 128.527 95.6836 128.581 95.7759C128.635 95.8683 128.651 95.9778 128.624 96.0811C128.597 96.1844 128.53 96.2733 128.437 96.3288V96.3263Z" fill="white"/>
<path d="M130.389 110.827V109.597C130.426 109.591 130.459 109.573 130.483 109.546L131.456 108.456C131.483 108.424 131.497 108.383 131.494 108.341C131.491 108.3 131.471 108.261 131.439 108.233L131.423 108.218C131.391 108.191 131.349 108.177 131.306 108.18C131.263 108.183 131.223 108.203 131.195 108.234L130.389 109.138V106.698C130.412 106.698 130.434 106.693 130.454 106.684C130.475 106.675 130.493 106.661 130.507 106.645L131.888 105.095C131.916 105.063 131.93 105.022 131.927 104.98C131.925 104.939 131.905 104.9 131.873 104.872C131.844 104.847 131.806 104.832 131.767 104.831C131.744 104.831 131.721 104.836 131.7 104.846C131.679 104.855 131.661 104.869 131.645 104.886L130.389 106.294V104.202C130.39 104.178 130.387 104.154 130.378 104.131C130.369 104.109 130.356 104.088 130.339 104.071C130.322 104.053 130.302 104.039 130.279 104.03C130.257 104.021 130.232 104.016 130.208 104.016C130.183 104.016 130.159 104.021 130.136 104.03C130.114 104.039 130.093 104.053 130.076 104.071C130.059 104.088 130.046 104.109 130.038 104.131C130.029 104.154 130.025 104.178 130.026 104.202V106.637L128.307 105.669C128.289 105.659 128.268 105.652 128.247 105.649C128.226 105.646 128.205 105.647 128.184 105.653C128.164 105.658 128.144 105.667 128.127 105.68C128.11 105.693 128.096 105.708 128.086 105.726C128.075 105.744 128.068 105.764 128.065 105.785C128.063 105.806 128.064 105.827 128.07 105.847C128.075 105.867 128.085 105.886 128.098 105.902C128.111 105.919 128.127 105.933 128.146 105.943L129.965 106.971C129.984 106.981 130.004 106.988 130.025 106.991V110.827H130.389Z" fill="white"/>
<path d="M56.7071 22.2188C56.7071 22.2188 48.85 23.03 43.2261 27.6459C37.6021 32.2618 38.6774 39.387 40.1664 44.2465C41.6553 49.106 44.7968 55.5015 44.7968 55.5015L77.6301 56.1497C77.6301 56.1497 85.6522 53.639 80.6898 45.3789C75.7274 37.1189 75.8106 36.8758 75.8934 34.6081C75.9761 32.3404 79.8638 22.4613 66.5492 22.4613C53.2347 22.4613 56.7071 22.2188 56.7071 22.2188Z" fill="#8390B7"/>
<path d="M55.0906 47.2046C51.6791 42.8308 50.703 36.9039 46.9595 32.8105C47.9009 34.9516 48.8166 37.1611 48.8657 39.4865C48.881 40.2012 48.8136 40.9221 48.9291 41.6281C49.1347 42.8837 49.9013 43.9855 50.7753 44.9272C51.6494 45.8689 52.6483 46.6961 53.4703 47.6806C53.6452 47.8902 53.8172 48.1172 53.8762 48.3797C54.0451 49.1264 53.3029 49.7421 52.6493 50.1603L55.0421 50.5203C55.2665 50.5537 55.5123 50.5989 55.6555 50.7721C55.9464 51.1229 55.5827 51.6323 55.2021 51.888C54.0218 52.6817 52.4209 52.9553 51.6082 54.1115C53.4357 53.9931 55.0901 52.8229 56.9215 52.8447C57.9189 52.8569 58.8713 53.2241 59.8043 53.5725C61.8378 54.3281 63.8985 55.0073 65.9862 55.6102C62.2982 54.4827 59.2969 51.8074 56.6708 49.0119C56.1213 48.4277 55.5822 47.8344 55.0906 47.2046Z" fill="#62739B"/>
<path d="M68.7119 52.6885C68.8487 52.7093 68.9854 52.7287 69.1232 52.7452C68.9859 52.7273 68.8492 52.7074 68.7119 52.6885Z" fill="#67759B"/>
<path d="M82.0392 45.2545C81.8559 45.1478 81.6557 45.0488 81.4421 45.0512C80.8059 45.058 80.5631 45.8401 80.3555 46.4296C79.8669 47.8196 78.4458 48.9321 76.9504 48.8021C75.9099 48.7113 74.9808 48.0544 74.3614 47.2277C73.7421 46.401 73.3893 45.4141 73.093 44.4307C71.6376 39.585 71.3439 34.4759 72.2347 29.501L71.4033 31.2122C68.8366 38.514 69.6542 46.7731 73.0484 53.7435C73.4517 54.5712 73.9199 55.4174 74.6974 55.9268C75.2127 56.2664 75.8276 56.4309 76.4415 56.5226C78.4166 56.8166 80.5185 56.3635 82.1185 55.1918C83.7184 54.0201 84.7699 52.124 84.7897 50.1678C84.8095 48.2116 83.7561 46.2539 82.0392 45.2545Z" fill="#62739B"/>
<path d="M58.0292 2.86649L59.0202 1.24699C59.0202 1.24699 60.4259 0.194166 61.3356 0.519231C62.2454 0.844296 67.3733 -1.42437 67.7043 1.57205C74.8167 0.923863 73.9897 9.50801 73.576 10.0747C73.1622 10.6414 70.5985 10.8024 70.5985 10.8024L55.96 15.1753C55.96 15.1753 51.9078 10.4788 54.2257 8.93987C52.9017 6.59164 54.7212 2.54288 58.0292 2.86649Z" fill="#661F0C"/>
<path d="M59.2872 4.00385C59.8 2.50272 61.5303 1.45815 63.2017 1.63961C62.9594 2.15872 62.6904 2.66541 62.3955 3.15771C63.4103 2.28682 64.9057 1.93702 66.2381 2.25965C66.4274 2.30526 66.6181 2.36639 66.7673 2.48477C67.3123 2.92143 66.9917 3.74622 66.6325 4.32843C67.5809 3.72633 68.8305 3.56234 69.9191 3.89711C71.0078 4.23188 71.9101 5.05812 72.2926 6.06971C72.9164 7.71929 72.2192 9.72887 73.2583 11.1834C73.4833 11.4978 73.7905 11.7909 73.8341 12.1673C73.8916 12.6666 73.456 13.0998 72.9917 13.3521C72.031 13.8747 70.8765 13.944 69.771 14.0595C66.2445 14.428 62.8106 15.3952 59.6232 16.9177C58.6178 17.3994 57.3602 17.9278 56.443 17.3106C55.8816 16.9332 55.6785 16.2515 55.5125 15.6227C55.0809 13.9901 54.7004 12.0989 55.786 10.7594C56.2751 10.1563 57.0015 9.75944 57.5272 9.18402C57.7026 8.98995 57.8597 8.76678 57.874 8.51449C57.9186 7.8105 56.9584 7.47719 56.5446 6.88819C56.0412 6.17256 56.4747 5.14691 57.2234 4.6564C57.9721 4.16589 58.928 4.06546 59.8382 3.98201L59.2872 4.00385Z" fill="#661F0C"/>
<path d="M70.2689 9.4252C68.6149 9.4252 69.0302 7.56262 68.1184 8.1293C67.2067 8.69599 66.299 9.66827 65.141 8.1293C63.3215 9.58482 62.0813 7.88672 62.0813 7.88672C62.0813 7.88672 61.9158 8.61448 60.7578 8.1293C60.7578 9.50622 57.7803 13.1504 57.7803 13.1504L57.7635 13.2047C57.1367 12.6404 56.332 12.4192 55.6433 12.7064C54.6136 13.1358 54.236 14.5345 54.8009 15.8309C55.1507 16.6353 55.781 17.2103 56.4549 17.4286L56.3756 17.6853C56.3756 17.6853 56.2929 19.1408 55.3004 22.6248C59.5181 28.7792 63.7362 28.5366 64.0667 26.512C64.3972 24.4874 63.819 23.2725 63.819 23.2725C63.819 23.2725 65.2247 23.8397 68.6159 22.5447C72.0071 21.2498 72.5844 9.74978 72.5844 9.74978C72.5844 9.74978 71.9229 9.4252 70.2689 9.4252Z" fill="#EB7962"/>
<path d="M56.1936 14.2489C55.8091 14.443 55.7011 14.9873 55.9528 15.4618C56.2045 15.9363 56.7203 16.1629 57.1048 15.9674C57.4893 15.7719 57.5978 15.2285 57.3461 14.7545C57.0944 14.2804 56.5791 14.0534 56.1936 14.2489Z" fill="#EA8744"/>
<path d="M64.349 9.85412C64.1808 9.78323 64.0089 9.72073 63.8342 9.66685C63.6648 9.61482 63.4915 9.57588 63.3159 9.5504C63.2292 9.53439 63.1415 9.53148 63.0533 9.52178C62.9656 9.52178 62.8769 9.51353 62.7887 9.52178C62.6059 9.53009 62.4238 9.55002 62.2437 9.58146C62.4022 9.47699 62.5807 9.40503 62.7684 9.36992L62.8392 9.35585C62.863 9.35148 62.8888 9.351 62.9111 9.34857C62.9606 9.34421 63.0072 9.34081 63.0553 9.3379C63.1518 9.33761 63.2482 9.34443 63.3437 9.35828C63.5339 9.386 63.7186 9.44246 63.8912 9.52566C64.0631 9.60663 64.2184 9.71798 64.349 9.85412Z" fill="black"/>
<path d="M70.7387 11.2042C70.5704 11.1334 70.3986 11.0708 70.2238 11.017C70.0545 10.9648 69.8812 10.9257 69.7056 10.9C69.6188 10.884 69.5311 10.8811 69.4434 10.8719C69.3557 10.8719 69.2666 10.8637 69.1784 10.8719C68.9955 10.8804 68.8135 10.9005 68.6333 10.9321C68.7919 10.8277 68.9704 10.7557 69.158 10.7205L69.2289 10.7065C69.2527 10.7016 69.2784 10.7016 69.3007 10.6987C69.349 10.6945 69.397 10.6911 69.4449 10.6885C69.5414 10.688 69.6379 10.6948 69.7333 10.7089C69.9236 10.7364 70.1084 10.7929 70.2808 10.8763C70.4529 10.9568 70.6082 11.068 70.7387 11.2042Z" fill="black"/>
<path d="M67.1542 12.2842C67.0396 12.563 66.9549 12.8528 66.9015 13.1488C66.8467 13.4385 66.837 13.7348 66.8727 14.0274C66.9092 14.3147 67.0108 14.5903 67.17 14.8342C67.2487 14.9562 67.3419 15.0685 67.4475 15.169C67.5526 15.2722 67.6668 15.3661 67.7889 15.4494L67.8618 15.5014L67.8122 15.5678C67.7324 15.6736 67.6487 15.7764 67.5645 15.8788C67.4802 15.9812 67.3895 16.0792 67.2974 16.1757C67.2044 16.2716 67.1061 16.3625 67.003 16.4479C66.9505 16.4896 66.897 16.5304 66.8405 16.5668C66.7851 16.6048 66.7241 16.6344 66.6597 16.6546C66.7178 16.6234 66.7713 16.5845 66.8187 16.5391C66.8683 16.4964 66.9139 16.4489 66.959 16.4018C67.0491 16.3077 67.1309 16.2053 67.2136 16.1044C67.2964 16.0035 67.3717 15.8973 67.449 15.792C67.4867 15.7386 67.5253 15.6862 67.5625 15.6319C67.5996 15.5775 67.6358 15.5242 67.674 15.4713L67.6967 15.5892C67.421 15.4239 67.1854 15.2017 67.0065 14.9381C66.9174 14.8051 66.8466 14.6613 66.7959 14.5101C66.7701 14.435 66.7483 14.3585 66.7305 14.2811C66.7149 14.2038 66.7035 14.1258 66.6963 14.0473C66.6692 13.7373 66.6992 13.425 66.785 13.1255C66.8255 12.9764 66.8772 12.8304 66.9396 12.6888C66.9994 12.5482 67.0711 12.4129 67.1542 12.2842Z" fill="black"/>
<path d="M69.9938 13.9035C70.0902 13.4264 69.8763 12.9831 69.516 12.9133C69.1558 12.8435 68.7856 13.1737 68.6892 13.6508C68.5928 14.1279 68.8067 14.5712 69.167 14.641C69.5272 14.7108 69.8974 14.3806 69.9938 13.9035Z" fill="black"/>
<path d="M63.9948 13.2346C64.0912 12.7575 63.8773 12.3142 63.517 12.2444C63.1567 12.1746 62.7865 12.5048 62.6902 12.9819C62.5938 13.4589 62.8077 13.9023 63.1679 13.9721C63.5282 14.0418 63.8984 13.7117 63.9948 13.2346Z" fill="black"/>
<path d="M66.0759 18.966C65.8746 18.995 65.6704 18.9978 65.4684 18.9743C65.2652 18.9525 65.0643 18.9129 64.8684 18.8559C64.6719 18.7983 64.4806 18.7248 64.2965 18.6361C64.2024 18.5958 64.1147 18.543 64.025 18.4949C63.9353 18.4469 63.8516 18.3872 63.7649 18.3338L63.9185 18.2548C63.9189 18.4694 63.9468 18.6831 64.0017 18.8908C64.0554 19.0967 64.1486 19.2906 64.2762 19.4624C64.3397 19.549 64.4128 19.6284 64.4943 19.6991C64.5757 19.7722 64.6643 19.8372 64.7588 19.8932C64.8533 19.9502 64.9528 19.999 65.0561 20.0387C65.1613 20.0805 65.2701 20.113 65.3812 20.1358C65.1485 20.1317 64.9194 20.0794 64.7088 19.9825C64.6016 19.9336 64.4998 19.8741 64.4051 19.8049C64.3102 19.7337 64.2237 19.6524 64.1474 19.5623C64.0701 19.4731 64.0035 19.3754 63.9492 19.2712C63.8933 19.1677 63.8486 19.0587 63.8159 18.9461C63.7507 18.7229 63.7185 18.4918 63.7203 18.2596V18.084L63.8724 18.181C63.9547 18.2334 64.0354 18.2887 64.1201 18.3387L64.247 18.412C64.2683 18.4241 64.2891 18.4372 64.3104 18.4488L64.3758 18.4823L64.5061 18.5497L64.6399 18.6104L64.7068 18.641L64.7752 18.6686C64.8208 18.6866 64.8659 18.706 64.912 18.723C65.0972 18.7912 65.2869 18.8471 65.4798 18.8903C65.6756 18.9341 65.8752 18.9594 66.0759 18.966Z" fill="black"/>
<path d="M72.1671 17.3667C72.1549 17.3666 72.1426 17.3657 72.1304 17.3642L67.671 16.7859C67.5972 16.7762 67.5304 16.7383 67.4851 16.6805C67.4399 16.6226 67.4199 16.5496 67.4297 16.4773L67.8023 13.7254C67.812 13.6531 67.8507 13.5876 67.9098 13.5432C67.9689 13.4988 68.0435 13.4792 68.1174 13.4887L72.5769 14.067C72.6506 14.0767 72.7175 14.1146 72.7627 14.1724C72.808 14.2303 72.8279 14.3033 72.8182 14.3756L72.4461 17.1265C72.4373 17.1929 72.4041 17.2538 72.3528 17.298C72.3015 17.3422 72.2355 17.3666 72.1671 17.3667ZM67.6992 16.5904L72.1587 17.1682C72.1694 17.1697 72.1804 17.1691 72.1909 17.1664C72.2014 17.1637 72.2112 17.159 72.2199 17.1526C72.2285 17.1461 72.2357 17.138 72.2411 17.1288C72.2465 17.1196 72.25 17.1094 72.2514 17.0988L72.624 14.3469C72.6268 14.3257 72.6208 14.3041 72.6075 14.2871C72.5941 14.2701 72.5743 14.259 72.5526 14.2562L68.0931 13.6793C68.0714 13.6766 68.0495 13.6823 68.0322 13.6953C68.0148 13.7083 68.0034 13.7275 68.0005 13.7487L67.6283 16.5011C67.6269 16.5116 67.6276 16.5223 67.6304 16.5326C67.6332 16.5428 67.638 16.5524 67.6447 16.5608C67.658 16.5778 67.6776 16.5889 67.6992 16.5918V16.5904Z" fill="#34394C"/>
<path d="M65.2473 16.4672C65.2347 16.4672 65.2221 16.4664 65.2096 16.4648L60.7501 15.8865C60.7136 15.8818 60.6783 15.87 60.6464 15.852C60.6145 15.8339 60.5865 15.8099 60.5641 15.7812C60.5417 15.7525 60.5253 15.7198 60.5158 15.685C60.5063 15.6501 60.5039 15.6137 60.5088 15.5779L60.8809 12.8255C60.8908 12.7533 60.9295 12.6879 60.9886 12.6436C61.0477 12.5993 61.1223 12.5798 61.1961 12.5893L65.658 13.1676C65.6946 13.1723 65.7299 13.1839 65.7618 13.202C65.7938 13.22 65.8218 13.2441 65.8442 13.2728C65.8666 13.3014 65.883 13.3342 65.8925 13.3691C65.902 13.404 65.9043 13.4404 65.8994 13.4762L65.5272 16.2281C65.5184 16.294 65.4854 16.3547 65.4343 16.3986C65.3833 16.4426 65.3177 16.467 65.2498 16.4672H65.2473ZM61.1619 12.7799C61.1418 12.78 61.1224 12.7871 61.1073 12.8001C61.0922 12.813 61.0824 12.8308 61.0796 12.8503L60.7075 15.6022C60.7047 15.6234 60.7106 15.6449 60.7238 15.6619C60.7371 15.6789 60.7567 15.69 60.7784 15.6929L65.2379 16.2712C65.2486 16.2727 65.2596 16.272 65.2701 16.2693C65.2806 16.2666 65.2905 16.2619 65.2991 16.2554C65.3078 16.249 65.315 16.241 65.3205 16.2318C65.326 16.2226 65.3296 16.2124 65.331 16.2019L65.7031 13.4495C65.7059 13.4282 65.7 13.4067 65.6866 13.3897C65.6733 13.3726 65.6535 13.3615 65.6318 13.3588L61.1753 12.7809L61.1619 12.7799Z" fill="#34394C"/>
<path d="M67.6571 15.1906C67.4488 15.0466 67.2178 14.937 66.9733 14.866C66.4605 14.7205 66.0155 14.8073 65.6508 15.1222L65.5195 14.9766C66.5175 14.1155 67.7647 15.0252 67.777 15.0363L67.6571 15.1906Z" fill="#34394C"/>
<path d="M60.6424 14.2921C60.6284 14.292 60.6146 14.289 60.6018 14.2833L57.5297 12.9249C57.5057 12.9143 57.487 12.8949 57.4777 12.8708C57.4683 12.8467 57.4691 12.82 57.4799 12.7965C57.4907 12.7731 57.5105 12.7547 57.5351 12.7456C57.5597 12.7364 57.587 12.7372 57.611 12.7478L60.6831 14.1063C60.7036 14.1154 60.7204 14.1312 60.7305 14.151C60.7407 14.1707 60.7436 14.1933 60.7389 14.2149C60.7341 14.2366 60.722 14.2559 60.7044 14.2699C60.6869 14.2838 60.665 14.2915 60.6424 14.2916V14.2921Z" fill="#34394C"/>
<path d="M73.9097 49.3447C73.9097 49.3447 75.9769 49.1022 77.8791 47.7252C79.7813 46.3483 79.7813 43.6765 79.4508 42.4616C79.1203 41.2467 77.5486 39.0605 77.5486 39.0605L73.9097 49.3447Z" fill="#EB7962"/>
<path d="M79.698 34.9334L79.6534 35.0649L74.4051 50.4007L64.396 48.1689L64.2305 48.132L64.9737 43.7592C65.0565 43.4351 67.9512 33.1504 67.9512 33.1504L78.5375 33.3124L79.698 34.9334Z" fill="#5867AC"/>
<path d="M79.697 34.9358L79.6524 35.0673L69.0284 34.6933C69.0284 34.6933 65.3909 45.1914 64.3969 48.1728L64.2314 48.1359L64.9747 43.7631C65.0574 43.439 67.9522 33.1543 67.9522 33.1543L78.5385 33.3163L79.697 34.9358Z" fill="#43538E"/>
<path d="M62.249 48.455C62.249 48.455 63.1588 44.1632 64.896 42.3006C66.6332 40.4381 69.8579 38.4134 70.6849 38.7375C71.5119 39.0616 68.7 41.4099 68.7 41.4099C68.7 41.4099 71.6774 40.1145 73.4969 40.6001C75.3164 41.0858 77.0531 41.896 76.3089 42.2982C75.5646 42.7004 74.0761 42.3792 74.0761 42.3792C74.0761 42.3792 75.3149 43.5131 74.8194 44.2418C74.3239 44.9705 73.9924 45.6182 74.4057 46.2664C74.8189 46.9146 68.3685 52.0157 68.3685 52.0157C68.3685 52.0157 61.5876 51.3704 62.249 48.455Z" fill="#EB7962"/>
<path d="M57.368 53.1534L62.2472 48.1328C62.2472 48.1328 62.0822 51.1287 67.2096 51.1287C72.3371 51.1287 66.1344 57.7693 66.1344 57.7693C66.1344 57.7693 54.4733 56.2308 57.368 53.1534Z" fill="#7686B2"/>
<path d="M113.228 69.0127H26.0171V103.691H113.228V69.0127Z" fill="#F28C20"/>
<path d="M31.9551 49.9678L22.5376 69.0108H116.71L108.316 49.9678H31.9551Z" fill="#CB4441"/>
<path d="M32.3342 53.5528C31.5308 53.5519 30.7606 53.239 30.1925 52.6828C29.6244 52.1267 29.3048 51.3726 29.3037 50.5859H29.5019C29.5118 51.315 29.8145 52.011 30.3445 52.5232C30.8745 53.0353 31.5893 53.3225 32.3339 53.3225C33.0786 53.3225 33.7933 53.0353 34.3234 52.5232C34.8534 52.011 35.1561 51.315 35.166 50.5859H35.3642C35.3632 51.3725 35.0437 52.1266 34.4757 52.6828C33.9077 53.239 33.1375 53.5519 32.3342 53.5528Z" fill="#EAACAC"/>
<path d="M38.196 53.5528C37.3927 53.5519 36.6225 53.239 36.0545 52.6828C35.4865 52.1266 35.1669 51.3725 35.166 50.5859H35.3642C35.3741 51.315 35.6768 52.011 36.2068 52.5232C36.7368 53.0353 37.4516 53.3225 38.1962 53.3225C38.9409 53.3225 39.6556 53.0353 40.1857 52.5232C40.7157 52.011 41.0184 51.315 41.0283 50.5859H41.2265C41.2254 51.3726 40.9058 52.1267 40.3377 52.6828C39.7696 53.239 38.9994 53.5519 38.196 53.5528Z" fill="#EAACAC"/>
<path d="M44.0578 53.5528C43.2545 53.5519 42.4843 53.239 41.9163 52.6828C41.3483 52.1266 41.0288 51.3725 41.0278 50.5859H41.226C41.2359 51.315 41.5386 52.011 42.0686 52.5232C42.5987 53.0353 43.3134 53.3225 44.0581 53.3225C44.8027 53.3225 45.5175 53.0353 46.0475 52.5232C46.5775 52.011 46.8802 51.315 46.8901 50.5859H47.0883C47.0872 51.3726 46.7676 52.1267 46.1995 52.6828C45.6314 53.239 44.8612 53.5519 44.0578 53.5528Z" fill="#EAACAC"/>
<path d="M49.9201 53.5528C49.1168 53.5519 48.3466 53.239 47.7786 52.6828C47.2106 52.1266 46.8911 51.3725 46.8901 50.5859H47.0883C47.0883 51.3213 47.3867 52.0266 47.9177 52.5466C48.4488 53.0666 49.1691 53.3587 49.9201 53.3587C50.6712 53.3587 51.3914 53.0666 51.9225 52.5466C52.4536 52.0266 52.7519 51.3213 52.7519 50.5859H52.9501C52.9492 51.3725 52.6297 52.1266 52.0616 52.6828C51.4936 53.239 50.7234 53.5519 49.9201 53.5528Z" fill="#EAACAC"/>
<path d="M55.799 53.5528C54.9957 53.5519 54.2256 53.239 53.6575 52.6828C53.0895 52.1266 52.77 51.3725 52.769 50.5859H52.9672C52.9771 51.315 53.2798 52.011 53.8098 52.5232C54.3399 53.0353 55.0546 53.3225 55.7993 53.3225C56.5439 53.3225 57.2587 53.0353 57.7887 52.5232C58.3187 52.011 58.6215 51.315 58.6313 50.5859H58.8295C58.8285 51.3726 58.5088 52.1267 57.9407 52.6828C57.3726 53.239 56.6024 53.5519 55.799 53.5528Z" fill="#EAACAC"/>
<path d="M61.6603 53.5528C60.857 53.5519 60.0869 53.239 59.5188 52.6828C58.9508 52.1266 58.6313 51.3725 58.6304 50.5859H58.8286C58.8286 51.3213 59.1269 52.0266 59.658 52.5466C60.189 53.0666 60.9093 53.3587 61.6603 53.3587C62.4114 53.3587 63.1317 53.0666 63.6627 52.5466C64.1938 52.0266 64.4921 51.3213 64.4921 50.5859H64.6903C64.6894 51.3725 64.3699 52.1266 63.8019 52.6828C63.2338 53.239 62.4637 53.5519 61.6603 53.5528Z" fill="#EAACAC"/>
<path d="M67.5246 53.5528C66.7212 53.5519 65.951 53.239 65.3829 52.6828C64.8148 52.1267 64.4952 51.3726 64.4941 50.5859H64.6923C64.7022 51.315 65.0049 52.011 65.5349 52.5232C66.065 53.0353 66.7797 53.3225 67.5244 53.3225C68.269 53.3225 68.9838 53.0353 69.5138 52.5232C70.0438 52.011 70.3465 51.315 70.3564 50.5859H70.5546C70.5537 51.3725 70.2342 52.1266 69.6661 52.6828C69.0981 53.239 68.3279 53.5519 67.5246 53.5528Z" fill="#EAACAC"/>
<path d="M73.3874 53.5528C72.5841 53.5519 71.8139 53.239 71.2459 52.6828C70.6779 52.1266 70.3583 51.3725 70.3574 50.5859H70.5556C70.5655 51.315 70.8682 52.011 71.3982 52.5232C71.9282 53.0353 72.643 53.3225 73.3876 53.3225C74.1323 53.3225 74.847 53.0353 75.3771 52.5232C75.9071 52.011 76.2098 51.315 76.2197 50.5859H76.4179C76.4168 51.3726 76.0972 52.1267 75.5291 52.6828C74.961 53.239 74.1908 53.5519 73.3874 53.5528Z" fill="#EAACAC"/>
<path d="M79.1931 53.5528C78.3897 53.5519 77.6196 53.239 77.0516 52.6828C76.4835 52.1266 76.164 51.3725 76.1631 50.5859H76.3613C76.3711 51.315 76.6738 52.011 77.2039 52.5232C77.7339 53.0353 78.4486 53.3225 79.1933 53.3225C79.938 53.3225 80.6527 53.0353 81.1827 52.5232C81.7128 52.011 82.0155 51.315 82.0253 50.5859H82.2235C82.2225 51.3726 81.9028 52.1267 81.3347 52.6828C80.7666 53.239 79.9964 53.5519 79.1931 53.5528Z" fill="#EAACAC"/>
<path d="M85.0559 53.5528C84.2525 53.5519 83.4824 53.239 82.9144 52.6828C82.3463 52.1266 82.0268 51.3725 82.0259 50.5859H82.2241C82.2241 51.3213 82.5224 52.0266 83.0535 52.5466C83.5845 53.0666 84.3048 53.3587 85.0559 53.3587C85.8069 53.3587 86.5272 53.0666 87.0582 52.5466C87.5893 52.0266 87.8876 51.3213 87.8876 50.5859H88.0858C88.0849 51.3725 87.7654 52.1266 87.1974 52.6828C86.6293 53.239 85.8592 53.5519 85.0559 53.5528Z" fill="#EAACAC"/>
<path d="M90.9177 53.5528C90.1143 53.5519 89.3441 53.239 88.776 52.6828C88.2079 52.1267 87.8883 51.3726 87.8872 50.5859H88.0854C88.0953 51.315 88.398 52.011 88.928 52.5232C89.458 53.0353 90.1728 53.3225 90.9174 53.3225C91.6621 53.3225 92.3768 53.0353 92.9069 52.5232C93.4369 52.011 93.7396 51.315 93.7495 50.5859H93.9477C93.9467 51.3725 93.6272 52.1266 93.0592 52.6828C92.4912 53.239 91.721 53.5519 90.9177 53.5528Z" fill="#EAACAC"/>
<path d="M96.778 53.5528C95.9747 53.5519 95.2046 53.239 94.6365 52.6828C94.0685 52.1266 93.749 51.3725 93.748 50.5859H93.9462C93.9561 51.315 94.2588 52.011 94.7889 52.5232C95.3189 53.0353 96.0336 53.3225 96.7783 53.3225C97.523 53.3225 98.2377 53.0353 98.7677 52.5232C99.2978 52.011 99.6005 51.315 99.6103 50.5859H99.8085C99.8075 51.3726 99.4878 52.1267 98.9197 52.6828C98.3516 53.239 97.5814 53.5519 96.778 53.5528Z" fill="#EAACAC"/>
<path d="M102.649 53.5528C101.846 53.5519 101.076 53.239 100.508 52.6828C99.9396 52.1266 99.6201 51.3725 99.6191 50.5859H99.8173C99.8272 51.315 100.13 52.011 100.66 52.5232C101.19 53.0353 101.905 53.3225 102.649 53.3225C103.394 53.3225 104.109 53.0353 104.639 52.5232C105.169 52.011 105.472 51.315 105.481 50.5859H105.68C105.679 51.3726 105.359 52.1267 104.791 52.6828C104.223 53.239 103.452 53.5519 102.649 53.5528Z" fill="#EAACAC"/>
<path d="M108.509 53.5528C107.706 53.5519 106.936 53.239 106.368 52.6828C105.8 52.1266 105.48 51.3725 105.479 50.5859H105.678C105.678 51.3213 105.976 52.0266 106.507 52.5466C107.038 53.0666 107.758 53.3587 108.509 53.3587C109.261 53.3587 109.981 53.0666 110.512 52.5466C111.043 52.0266 111.341 51.3213 111.341 50.5859H111.539C111.539 51.3725 111.219 52.1266 110.651 52.6828C110.083 53.239 109.313 53.5519 108.509 53.5528Z" fill="#EAACAC"/>
<path d="M29.0816 59.1172C27.2695 59.1172 25.7954 57.7864 25.7954 56.1504H25.9936C25.9936 57.6792 27.381 58.9231 29.0816 58.9231C30.7821 58.9231 32.17 57.6792 32.17 56.1504H32.3682C32.3682 57.7864 30.8941 59.1172 29.0816 59.1172Z" fill="#EAACAC"/>
<path d="M35.4595 59.1172C33.647 59.1172 32.1729 57.7864 32.1729 56.1504H32.3711C32.3711 57.6792 33.7585 58.9231 35.4595 58.9231C37.1606 58.9231 38.5475 57.6792 38.5475 56.1504H38.7457C38.7457 57.7864 37.2715 59.1172 35.4595 59.1172Z" fill="#EAACAC"/>
<path d="M41.833 59.1172C40.0205 59.1172 38.5464 57.7864 38.5464 56.1504H38.7446C38.7446 57.6792 40.132 58.9231 41.833 58.9231C43.5341 58.9231 44.921 57.6792 44.921 56.1504H45.1192C45.1192 57.7864 43.6451 59.1172 41.833 59.1172Z" fill="#EAACAC"/>
<path d="M48.209 59.1172C46.397 59.1172 44.9224 57.7864 44.9224 56.1504H45.1206C45.1206 57.6792 46.508 58.9231 48.209 58.9231C49.9101 58.9231 51.297 57.6792 51.297 56.1504H51.4952C51.4952 57.7864 50.0211 59.1172 48.209 59.1172Z" fill="#EAACAC"/>
<path d="M54.5987 59.1172C52.7861 59.1172 51.312 57.7864 51.312 56.1504H51.5102C51.5102 57.6792 52.8976 58.9231 54.5987 58.9231C56.2997 58.9231 57.6866 57.6792 57.6866 56.1504H57.8848C57.8848 57.7864 56.4107 59.1172 54.5987 59.1172Z" fill="#EAACAC"/>
<path d="M60.9761 59.1172C59.1641 59.1172 57.6895 57.7864 57.6895 56.1504H57.8877C57.8877 57.6792 59.2751 58.9231 60.9761 58.9231C62.6772 58.9231 64.0641 57.6792 64.0641 56.1504H64.2623C64.2623 57.7864 62.7881 59.1172 60.9761 59.1172Z" fill="#EAACAC"/>
<path d="M67.3501 59.1172C65.5381 59.1172 64.0635 57.7864 64.0635 56.1504H64.2617C64.2617 57.6792 65.6491 58.9231 67.3501 58.9231C69.0512 58.9231 70.4381 57.6792 70.4381 56.1504H70.6363C70.6363 57.7864 69.1622 59.1172 67.3501 59.1172Z" fill="#EAACAC"/>
<path d="M73.7217 59.1172C71.9097 59.1172 70.4351 57.7864 70.4351 56.1504H70.6333C70.6333 57.6792 72.0207 58.9231 73.7217 58.9231C75.4228 58.9231 76.8096 57.6792 76.8096 56.1504H77.0078C77.0078 57.7864 75.5337 59.1172 73.7217 59.1172Z" fill="#EAACAC"/>
<path d="M80.0396 59.1172C78.227 59.1172 76.7529 57.7864 76.7529 56.1504H76.9511C76.9511 57.6792 78.3385 58.9231 80.0396 58.9231C81.7406 58.9231 83.1275 57.6792 83.1275 56.1504H83.3257C83.3257 57.7864 81.8516 59.1172 80.0396 59.1172Z" fill="#EAACAC"/>
<path d="M86.4136 59.1172C84.6016 59.1172 83.127 57.7864 83.127 56.1504H83.3252C83.3252 57.6792 84.7125 58.9231 86.4136 58.9231C88.1146 58.9231 89.5016 57.6792 89.5016 56.1504H89.6997C89.6997 57.7864 88.2256 59.1172 86.4136 59.1172Z" fill="#EAACAC"/>
<path d="M92.7891 59.1172C90.9771 59.1172 89.5024 57.7864 89.5024 56.1504H89.7006C89.7006 57.6792 91.088 58.9231 92.7891 58.9231C94.4901 58.9231 95.877 57.6792 95.877 56.1504H96.0752C96.0752 57.7864 94.6011 59.1172 92.7891 59.1172Z" fill="#EAACAC"/>
<path d="M99.1636 59.1172C97.3516 59.1172 95.877 57.7864 95.877 56.1504H96.0752C96.0752 57.6792 97.4626 58.9231 99.1636 58.9231C100.865 58.9231 102.252 57.6792 102.252 56.1504H102.45C102.45 57.7864 100.976 59.1172 99.1636 59.1172Z" fill="#EAACAC"/>
<path d="M105.545 59.1172C103.733 59.1172 102.259 57.7864 102.259 56.1504H102.457C102.457 57.6792 103.844 58.9231 105.545 58.9231C107.246 58.9231 108.633 57.6792 108.633 56.1504H108.832C108.833 57.7864 107.359 59.1172 105.545 59.1172Z" fill="#EAACAC"/>
<path d="M111.92 59.1172C110.107 59.1172 108.633 57.7864 108.633 56.1504H108.832C108.832 57.6792 110.219 58.9231 111.92 58.9231C113.621 58.9231 115.008 57.6792 115.008 56.1504H115.206C115.206 57.7864 113.732 59.1172 111.92 59.1172Z" fill="#EAACAC"/>
<path d="M25.9689 64.6846C24.0226 64.6846 22.4395 63.3538 22.4395 61.7178H22.6377C22.6377 63.2466 24.1321 64.4905 25.9689 64.4905C27.8057 64.4905 29.2996 63.2466 29.2996 61.7178H29.4978C29.4973 63.3538 27.9142 64.6846 25.9689 64.6846Z" fill="#EAACAC"/>
<path d="M32.8268 64.6846C30.881 64.6846 29.2979 63.3538 29.2979 61.7178H29.4961C29.4961 63.2466 30.9905 64.4905 32.8268 64.4905C34.6631 64.4905 36.1576 63.2466 36.1576 61.7178H36.3558C36.3558 63.3538 34.7726 64.6846 32.8268 64.6846Z" fill="#EAACAC"/>
<path d="M39.6872 64.6846C37.7408 64.6846 36.1577 63.3538 36.1577 61.7178H36.3559C36.3559 63.2466 37.8503 64.4905 39.6872 64.4905C41.524 64.4905 43.0179 63.2466 43.0179 61.7178H43.2161C43.2161 63.3538 41.633 64.6846 39.6872 64.6846Z" fill="#EAACAC"/>
<path d="M46.548 64.6846C44.6022 64.6846 43.019 63.3538 43.019 61.7178H43.2172C43.2172 63.2466 44.7117 64.4905 46.548 64.4905C48.3843 64.4905 49.8787 63.2466 49.8787 61.7178H50.0769C50.0769 63.3538 48.4938 64.6846 46.548 64.6846Z" fill="#EAACAC"/>
<path d="M53.4279 64.6846C51.4821 64.6846 49.8989 63.3538 49.8989 61.7178H50.0971C50.0971 63.2466 51.5916 64.4905 53.4279 64.4905C55.2642 64.4905 56.7591 63.2466 56.7591 61.7178H56.9573C56.9573 63.3538 55.3742 64.6846 53.4279 64.6846Z" fill="#EAACAC"/>
<path d="M60.2882 64.6846C58.3424 64.6846 56.7593 63.3538 56.7593 61.7178H56.9575C56.9575 63.2466 58.4514 64.4905 60.2882 64.4905C62.125 64.4905 63.619 63.2466 63.619 61.7178H63.8172C63.8172 63.3538 62.234 64.6846 60.2882 64.6846Z" fill="#EAACAC"/>
<path d="M67.1481 64.6846C65.2023 64.6846 63.6191 63.3538 63.6191 61.7178H63.8173C63.8173 63.2466 65.3118 64.4905 67.1481 64.4905C68.9844 64.4905 70.4793 63.2466 70.4793 61.7178H70.6775C70.6775 63.3538 69.0944 64.6846 67.1481 64.6846Z" fill="#EAACAC"/>
<path d="M74.007 64.6846C72.0611 64.6846 70.478 63.3538 70.478 61.7178H70.6762C70.6762 63.2466 72.1702 64.4905 74.007 64.4905C75.8438 64.4905 77.3377 63.2466 77.3377 61.7178H77.5359C77.5359 63.3538 75.9528 64.6846 74.007 64.6846Z" fill="#EAACAC"/>
<path d="M80.8029 64.6846C78.857 64.6846 77.2739 63.3538 77.2739 61.7178H77.4721C77.4721 63.2466 78.9661 64.4905 80.8029 64.4905C82.6397 64.4905 84.1336 63.2466 84.1336 61.7178H84.3318C84.3318 63.3538 82.7487 64.6846 80.8029 64.6846Z" fill="#EAACAC"/>
<path d="M87.6637 64.6846C85.7179 64.6846 84.1348 63.3538 84.1348 61.7178H84.333C84.333 63.2466 85.8274 64.4905 87.6637 64.4905C89.5 64.4905 90.995 63.2466 90.995 61.7178H91.1932C91.1932 63.3538 89.6095 64.6846 87.6637 64.6846Z" fill="#EAACAC"/>
<path d="M94.5231 64.6846C92.5773 64.6846 90.9941 63.3538 90.9941 61.7178H91.1923C91.1923 63.2466 92.6863 64.4905 94.5231 64.4905C96.3599 64.4905 97.8538 63.2466 97.8538 61.7178H98.052C98.052 63.3538 96.4689 64.6846 94.5231 64.6846Z" fill="#EAACAC"/>
<path d="M101.383 64.6846C99.4371 64.6846 97.854 63.3538 97.854 61.7178H98.0522C98.0522 63.2466 99.5466 64.4905 101.383 64.4905C103.219 64.4905 104.714 63.2466 104.714 61.7178H104.912C104.912 63.3538 103.329 64.6846 101.383 64.6846Z" fill="#EAACAC"/>
<path d="M108.252 64.6846C106.305 64.6846 104.722 63.3538 104.722 61.7178H104.92C104.92 63.2466 106.415 64.4905 108.252 64.4905C110.088 64.4905 111.582 63.2466 111.582 61.7178H111.781C111.781 63.3538 110.197 64.6846 108.252 64.6846Z" fill="#EAACAC"/>
<path d="M115.111 64.6846C113.165 64.6846 111.582 63.3538 111.582 61.7178H111.78C111.78 63.2466 113.275 64.4905 115.111 64.4905C116.947 64.4905 118.442 63.2466 118.442 61.7178H118.64C118.64 63.3538 117.057 64.6846 115.111 64.6846Z" fill="#EAACAC"/>
<path d="M23.0579 70.25C21.0145 70.25 19.3521 68.9192 19.3521 67.2832H19.5503C19.5503 68.812 21.1235 70.056 23.0579 70.056C24.9923 70.056 26.5655 68.812 26.5655 67.2832H26.7637C26.7637 68.9192 25.1013 70.25 23.0579 70.25Z" fill="#EAACAC"/>
<path d="M30.2722 70.25C28.2288 70.25 26.5664 68.9192 26.5664 67.2832H26.7646C26.7646 68.812 28.3383 70.056 30.2722 70.056C32.2062 70.056 33.7799 68.812 33.7799 67.2832H33.9781C33.9781 68.9192 32.3157 70.25 30.2722 70.25Z" fill="#EAACAC"/>
<path d="M37.4851 70.25C35.4417 70.25 33.7793 68.9192 33.7793 67.2832H33.9775C33.9775 68.812 35.5512 70.056 37.4851 70.056C39.4191 70.056 40.9933 68.812 40.9933 67.2832H41.1915C41.1915 68.9192 39.5286 70.25 37.4851 70.25Z" fill="#EAACAC"/>
<path d="M44.6995 70.25C42.6561 70.25 40.9937 68.9192 40.9937 67.2832H41.1919C41.1919 68.812 42.7651 70.056 44.6995 70.056C46.6339 70.056 48.2071 68.812 48.2071 67.2832H48.4053C48.4068 68.9192 46.7444 70.25 44.6995 70.25Z" fill="#EAACAC"/>
<path d="M51.9363 70.25C49.8929 70.25 48.2305 68.9192 48.2305 67.2832H48.4287C48.4287 68.812 50.0019 70.056 51.9363 70.056C53.8707 70.056 55.444 68.812 55.444 67.2832H55.6422C55.6422 68.9192 53.9798 70.25 51.9363 70.25Z" fill="#EAACAC"/>
<path d="M59.1458 70.25C57.1023 70.25 55.4399 68.9192 55.4399 67.2832H55.6381C55.6381 68.812 57.2119 70.056 59.1458 70.056C61.0797 70.056 62.6534 68.812 62.6534 67.2832H62.8516C62.8516 68.9192 61.1892 70.25 59.1458 70.25Z" fill="#EAACAC"/>
<path d="M66.3601 70.25C64.3167 70.25 62.6543 68.9192 62.6543 67.2832H62.8525C62.8525 68.812 64.4262 70.056 66.3601 70.056C68.2941 70.056 69.8683 68.812 69.8683 67.2832H70.0665C70.066 68.9192 68.4041 70.25 66.3601 70.25Z" fill="#EAACAC"/>
<path d="M73.575 70.25C71.5315 70.25 69.8691 68.9192 69.8691 67.2832H70.0673C70.0673 68.812 71.6406 70.056 73.575 70.056C75.5094 70.056 77.0826 68.812 77.0826 67.2832H77.2808C77.2808 68.9192 75.6164 70.25 73.575 70.25Z" fill="#EAACAC"/>
<path d="M80.72 70.25C78.6766 70.25 77.0142 68.9192 77.0142 67.2832H77.2124C77.2124 68.812 78.7856 70.056 80.72 70.056C82.6544 70.056 84.2277 68.812 84.2277 67.2832H84.4259C84.4269 68.9192 82.7645 70.25 80.72 70.25Z" fill="#EAACAC"/>
<path d="M87.9344 70.25C85.8909 70.25 84.2285 68.9192 84.2285 67.2832H84.4267C84.4267 68.812 86.0004 70.056 87.9344 70.056C89.8683 70.056 91.442 68.812 91.442 67.2832H91.6402C91.6402 68.9192 89.9778 70.25 87.9344 70.25Z" fill="#EAACAC"/>
<path d="M95.1487 70.25C93.1053 70.25 91.4429 68.9192 91.4429 67.2832H91.6411C91.6411 68.812 93.2148 70.056 95.1487 70.056C97.0826 70.056 98.6564 68.812 98.6564 67.2832H98.8545C98.856 68.9192 97.1921 70.25 95.1487 70.25Z" fill="#EAACAC"/>
<path d="M102.363 70.25C100.32 70.25 98.6567 68.9192 98.6567 67.2832H98.8549C98.8549 68.812 100.429 70.056 102.363 70.056C104.298 70.056 105.871 68.812 105.871 67.2832H106.069C106.069 68.9192 104.406 70.25 102.363 70.25Z" fill="#EAACAC"/>
<path d="M109.586 70.25C107.543 70.25 105.88 68.9192 105.88 67.2832H106.079C106.079 68.812 107.652 70.056 109.586 70.056C111.521 70.056 113.094 68.812 113.094 67.2832H113.292C113.292 68.9192 111.63 70.25 109.586 70.25Z" fill="#EAACAC"/>
<path d="M116.798 70.25C114.754 70.25 113.092 68.9192 113.092 67.2832H113.29C113.29 68.812 114.863 70.056 116.798 70.056C118.732 70.056 120.305 68.812 120.305 67.2832H120.503C120.503 68.9192 118.841 70.25 116.798 70.25Z" fill="#EAACAC"/>
<path d="M115.889 103.691H23.5596V108.502H115.889V103.691Z" fill="#CB4441"/>
<path d="M23.5588 108.502L21.6333 109.892H118.676L115.888 108.502H23.5588Z" fill="#9EDBC4"/>
<path d="M119.087 109.89H21.3613V110.825H119.087V109.89Z" fill="#66AD91"/>
<path d="M111.233 94.3184H91.4538C91.2622 94.3184 91.1069 94.4704 91.1069 94.658V96.6515C91.1069 96.8391 91.2622 96.9912 91.4538 96.9912H111.233C111.425 96.9912 111.58 96.8391 111.58 96.6515V94.658C111.58 94.4704 111.425 94.3184 111.233 94.3184Z" fill="#FFB776"/>
<path d="M108.421 77.6113H94.2651V94.3168H108.421V77.6113Z" fill="#CB4441"/>
<path d="M100.525 78.8682H96.0889V85.367H100.525V78.8682Z" fill="#FFD3AE"/>
<path d="M100.525 86.9561H96.0889V93.4549H100.525V86.9561Z" fill="#FFD3AE"/>
<path d="M106.701 78.8682H102.265V85.367H106.701V78.8682Z" fill="#FFD3AE"/>
<path d="M106.701 86.9561H102.265V93.4549H106.701V86.9561Z" fill="#FFD3AE"/>
<path d="M48.4485 94.3184H28.6691C28.4776 94.3184 28.3223 94.4704 28.3223 94.658V96.6515C28.3223 96.8391 28.4776 96.9912 28.6691 96.9912H48.4485C48.64 96.9912 48.7953 96.8391 48.7953 96.6515V94.658C48.7953 94.4704 48.64 94.3184 48.4485 94.3184Z" fill="#FFB776"/>
<path d="M45.6383 77.6113H31.4824V94.3168H45.6383V77.6113Z" fill="#CB4441"/>
<path d="M37.7409 78.8682H33.3052V85.367H37.7409V78.8682Z" fill="#FFD3AE"/>
<path d="M37.7409 86.9561H33.3052V93.4549H37.7409V86.9561Z" fill="#FFD3AE"/>
<path d="M43.9162 78.8682H39.4805V85.367H43.9162V78.8682Z" fill="#FFD3AE"/>
<path d="M43.9162 86.9561H39.4805V93.4549H43.9162V86.9561Z" fill="#FFD3AE"/>
<path d="M88.2548 108.499H50.5859V65.9876L69.625 46.1582L88.2548 64.8063V108.499Z" fill="#FFB776"/>
<g opacity="0.38">
<path opacity="0.38" d="M51.0255 67.6033H39.4219V61.5469H51.0255V67.6033ZM39.5225 67.5062H50.9264V61.6439H39.521L39.5225 67.5062Z" fill="white"/>
<path opacity="0.38" d="M62.5298 67.6033H50.9297V61.5469H62.5313L62.5298 67.6033ZM51.0273 67.5062H62.4307V61.6439H51.0288L51.0273 67.5062Z" fill="white"/>
<path opacity="0.38" d="M74.0303 67.6033H62.4282V61.5469H74.0303V67.6033ZM62.5273 67.5062H73.9312V61.6439H62.5273V67.5062Z" fill="white"/>
<path opacity="0.38" d="M85.5333 67.6033H73.9316V61.5469H85.5333V67.6033ZM74.0307 67.5062H85.4342V61.6439H74.0307V67.5062Z" fill="white"/>
<path opacity="0.38" d="M97.0352 67.6033H85.4331V61.5469H97.0352V67.6033ZM85.5322 67.5062H96.9361V61.6439H85.5322V67.5062Z" fill="white"/>
<path opacity="0.38" d="M56.275 73.5818H44.6729V67.5254H56.275V73.5818ZM44.772 73.4847H56.1759V67.6224H44.772V73.4847Z" fill="white"/>
<path opacity="0.38" d="M67.7789 73.5818H56.1772V67.5254H67.7789V73.5818ZM56.2763 73.4847H67.6798V67.6224H56.2763V73.4847Z" fill="white"/>
<path opacity="0.38" d="M79.2813 73.5818H67.6792V67.5254H79.2813V73.5818ZM67.7783 73.4847H79.1822V67.6224H67.7783V73.4847Z" fill="white"/>
<path opacity="0.38" d="M90.7833 73.5818H79.1816V67.5254H90.7833V73.5818ZM79.2807 73.4847H90.6842V67.6224H79.2807V73.4847Z" fill="white"/>
<path opacity="0.38" d="M102.286 73.5818H90.6841V67.5254H102.286V73.5818ZM90.7832 73.4847H102.187V67.6224H90.7832V73.4847Z" fill="white"/>
<path opacity="0.38" d="M50.21 55.7146H38.6084V49.6582H50.21V55.7146ZM38.7075 55.6176H50.1109V49.7552H38.7075V55.6176Z" fill="white"/>
<path opacity="0.38" d="M61.713 55.7146H50.1108V49.6582H61.713V55.7146ZM50.2099 55.6176H61.6139V49.7552H50.2099V55.6176Z" fill="white"/>
<path opacity="0.38" d="M73.2159 55.7146H61.6143V49.6582H73.2159V55.7146ZM61.7134 55.6176H73.1168V49.7552H61.7134V55.6176Z" fill="white"/>
<path opacity="0.38" d="M84.7213 55.7146H73.1172V49.6582H84.7213V55.7146ZM73.2183 55.6176H84.6222V49.7552H73.2163L73.2183 55.6176Z" fill="white"/>
<path opacity="0.38" d="M96.2212 55.7146H84.6216V49.6582H96.2212V55.7146ZM84.7187 55.6176H96.1221V49.7552H84.7207L84.7187 55.6176Z" fill="white"/>
<path opacity="0.38" d="M55.461 61.6931H43.8589V55.6367H55.461V61.6931ZM43.958 61.5961H55.3619V55.7338H43.958V61.5961Z" fill="white"/>
<path opacity="0.38" d="M66.9615 61.6931H55.3599V55.6367H66.9615V61.6931ZM55.459 61.5961H66.8624V55.7338H55.459V61.5961Z" fill="white"/>
<path opacity="0.38" d="M78.4664 61.6931H66.8643V55.6367H78.4664V61.6931ZM66.9634 61.5961H78.3673V55.7338H66.9634V61.5961Z" fill="white"/>
<path opacity="0.38" d="M89.9698 61.6931H78.3677V55.6367H89.9698V61.6931ZM78.4668 61.5961H89.8707V55.7338H78.4668V61.5961Z" fill="white"/>
<path opacity="0.38" d="M101.472 61.6931H89.8706V55.6367H101.472V61.6931ZM89.9697 61.5961H101.373V55.7338H89.9697V61.5961Z" fill="white"/>
<path opacity="0.38" d="M51.8697 79.4919H40.2681V73.4355H51.8697V79.4919ZM40.3667 79.3949H51.7706V73.5326H40.3672L40.3667 79.3949Z" fill="white"/>
<path opacity="0.38" d="M63.3687 79.4919H51.7666V73.4355H63.3682L63.3687 79.4919ZM51.8662 79.3949H63.2696V73.5326H51.8657L51.8662 79.3949Z" fill="white"/>
<path opacity="0.38" d="M74.8751 79.4919H63.2729V73.4355H74.8751V79.4919ZM63.372 79.3949H74.776V73.5326H63.372V79.3949Z" fill="white"/>
<path opacity="0.38" d="M86.3775 79.4919H74.7759V73.4355H86.3775V79.4919ZM74.875 79.3949H86.2784V73.5326H74.875V79.3949Z" fill="white"/>
<path opacity="0.38" d="M97.8795 79.4919H86.2773V73.4355H97.8795V79.4919ZM86.3764 79.3949H97.7804V73.5326H86.3764V79.3949Z" fill="white"/>
<path opacity="0.38" d="M45.6173 85.467H34.0151V79.4102H45.6173V85.467ZM34.1142 85.37H45.5182V79.5072H34.1142V85.37Z" fill="white"/>
<path opacity="0.38" d="M57.1197 85.467H45.5166V79.4102H57.1197V85.467ZM45.6172 85.37H57.0206V79.5072H45.6157L45.6172 85.37Z" fill="white"/>
<path opacity="0.38" d="M68.6221 85.467H57.0215V79.4102H68.6236L68.6221 85.467ZM57.1191 85.37H68.523V79.5072H57.1206L57.1191 85.37Z" fill="white"/>
<path opacity="0.38" d="M80.1251 85.467H68.5229V79.4102H80.1251V85.467ZM68.622 85.37H80.026V79.5072H68.622V85.37Z" fill="white"/>
<path opacity="0.38" d="M91.628 85.467H80.0264V79.4102H91.628V85.467ZM80.1255 85.37H91.5289V79.5072H80.1255V85.37Z" fill="white"/>
<path opacity="0.38" d="M103.132 85.467H91.5303V79.4102H103.132V85.467ZM91.6294 85.37H103.033V79.5072H91.6294V85.37Z" fill="white"/>
<path opacity="0.38" d="M52.713 91.3811H41.1108V85.3242H52.713V91.3811ZM41.2099 91.2841H52.6139V85.4213H41.2099V91.2841Z" fill="white"/>
<path opacity="0.38" d="M64.2159 91.3811H52.6143V85.3242H64.2159V91.3811ZM52.7134 91.2841H64.1168V85.4213H52.7134V91.2841Z" fill="white"/>
<path opacity="0.38" d="M75.7193 91.3811H64.1172V85.3242H75.7193V91.3811ZM64.2163 91.2841H75.6202V85.4213H64.2163V91.2841Z" fill="white"/>
<path opacity="0.38" d="M87.2212 91.3811H75.6196V85.3242H87.2212V91.3811ZM75.7187 91.2841H87.1221V85.4213H75.7187V91.2841Z" fill="white"/>
<path opacity="0.38" d="M98.7252 91.3811H87.123V85.3242H98.7252V91.3811ZM87.2221 91.2841H98.6261V85.4213H87.2221V91.2841Z" fill="white"/>
<path opacity="0.38" d="M46.462 97.3557H34.8599V91.2988H46.462V97.3557ZM34.959 97.2587H46.3629V91.3959H34.959V97.2587Z" fill="white"/>
<path opacity="0.38" d="M57.962 97.3557H46.3608V91.2988H57.962V97.3557ZM46.4594 97.2587H57.8629V91.3959H46.4599L46.4594 97.2587Z" fill="white"/>
<path opacity="0.38" d="M69.4669 97.3557H57.8643V91.2988H69.4664L69.4669 97.3557ZM57.9639 97.2587H69.3678V91.3959H57.9634L57.9639 97.2587Z" fill="white"/>
<path opacity="0.38" d="M80.9693 97.3557H69.3677V91.2988H80.9693V97.3557ZM69.4668 97.2587H80.8702V91.3959H69.4668V97.2587Z" fill="white"/>
<path opacity="0.38" d="M92.4727 97.3557H80.8706V91.2988H92.4727V97.3557ZM80.9697 97.2587H92.3736V91.3959H80.9697V97.2587Z" fill="white"/>
<path opacity="0.38" d="M103.975 97.3557H92.373V91.2988H103.975V97.3557ZM92.4721 97.2587H103.876V91.3959H92.4721V97.2587Z" fill="white"/>
<path opacity="0.38" d="M53.5582 103.273H41.9565V97.2158H53.5582V103.273ZM42.0556 103.176H53.4591V97.3129H42.0556V103.176Z" fill="white"/>
<path opacity="0.38" d="M65.0626 103.273H53.4604V97.2158H65.0626V103.273ZM53.5595 103.176H64.9635V97.3129H53.5595V103.176Z" fill="white"/>
<path opacity="0.38" d="M76.5631 103.273H64.9609V97.2158H76.5631V103.273ZM65.06 103.176H76.464V97.3129H65.06V103.176Z" fill="white"/>
<path opacity="0.38" d="M88.0679 103.273H76.4663V97.2158H88.0679V103.273ZM76.5654 103.176H87.9688V97.3129H76.5654V103.176Z" fill="white"/>
<path opacity="0.38" d="M99.5704 103.273H87.9683V97.2158H99.5704V103.273ZM88.0674 103.176H99.4713V97.3129H88.0674V103.176Z" fill="white"/>
<path opacity="0.38" d="M47.3053 109.245H35.7031V103.188H47.3053V109.245ZM35.8022 109.148H47.2062V103.286H35.8022V109.148Z" fill="white"/>
<path opacity="0.38" d="M58.8091 109.245H47.2075V103.188H58.8091V109.245ZM47.3066 109.148H58.71V103.286H47.3066V109.148Z" fill="white"/>
<path opacity="0.38" d="M70.3121 109.245H58.71V103.188H70.3121V109.245ZM58.8091 109.148H70.213V103.286H58.8091V109.148Z" fill="white"/>
<path opacity="0.38" d="M81.8135 109.245H70.2119V103.188H81.8135V109.245ZM70.311 109.148H81.7144V103.286H70.311V109.148Z" fill="white"/>
<path opacity="0.38" d="M93.3155 109.245H81.7134V103.188H93.3155V109.245ZM81.8125 109.148H93.2164V103.286H81.8125V109.148Z" fill="white"/>
<path opacity="0.38" d="M104.819 109.245H93.2178V103.188H104.819V109.245ZM93.3169 109.148H104.72V103.286H93.3169V109.148Z" fill="white"/>
</g>
<path d="M94.4847 67.386L69.68 43.5059L45.5259 67.3651L47.327 69.1297L69.6245 46.1622L92.6821 69.1496L94.4847 67.386Z" fill="#A12324"/>
<path d="M82.9175 105.346H56.439V108.5H82.9175V105.346Z" fill="#CB4441"/>
<path d="M77.9423 84.7539H61.9609V105.348H77.9423V84.7539Z" fill="#F28C20"/>
<path d="M79.841 74.9424H60.0617C59.8701 74.9424 59.7148 75.0944 59.7148 75.282V77.2756C59.7148 77.4631 59.8701 77.6152 60.0617 77.6152H79.841C80.0326 77.6152 80.1879 77.4631 80.1879 77.2756V75.282C80.1879 75.0944 80.0326 74.9424 79.841 74.9424Z" fill="#F28C20"/>
<path d="M77.03 58.2412H62.874V74.9466H77.03V58.2412Z" fill="#CB4441"/>
<path d="M69.1315 59.4912H64.6958V65.9901H69.1315V59.4912Z" fill="#FFD3AE"/>
<path d="M69.1315 67.5762H64.6958V74.0751H69.1315V67.5762Z" fill="#FFD3AE"/>
<path d="M75.3078 59.4912H70.8721V65.9901H75.3078V59.4912Z" fill="#FFD3AE"/>
<path d="M75.3078 67.5762H70.8721V74.0751H75.3078V67.5762Z" fill="#FFD3AE"/>
<path d="M77.03 85.9297H62.874V104.172H77.03V85.9297Z" fill="#FFD3AE"/>
<path d="M64.9704 95.9901C65.2353 95.9901 65.45 95.7798 65.45 95.5204C65.45 95.2611 65.2353 95.0508 64.9704 95.0508C64.7055 95.0508 64.4907 95.2611 64.4907 95.5204C64.4907 95.7798 64.7055 95.9901 64.9704 95.9901Z" fill="white"/>
</svg>
