<svg width="136" height="130" viewBox="0 0 136 130" fill="none" xmlns="http://www.w3.org/2000/svg">
<path d="M56.5409 11.6399C56.2798 11.6399 56.0186 11.5909 55.7698 11.5051C55.1604 11.2846 54.7251 10.8435 54.3023 10.4146C54.0286 10.1451 53.7799 9.88777 53.4814 9.69173C52.5486 9.09136 51.1557 9.2874 50.4468 10.1451C50.2975 10.3289 50.0239 10.3534 49.8374 10.2063C49.6508 10.0593 49.6259 9.78975 49.7752 9.60597C50.7577 8.42972 52.673 8.14792 53.954 8.98109C54.3271 9.21389 54.6256 9.5202 54.9117 9.81426C55.2848 10.1818 55.633 10.5372 56.0683 10.6964C56.7772 10.9537 57.6976 10.5494 57.9588 9.85102C58.0458 9.63047 58.2946 9.5202 58.5184 9.60597C58.7423 9.69173 58.8542 9.93678 58.7672 10.1573C58.4438 11.064 57.4986 11.6399 56.5409 11.6399Z" fill="#6B937E"/>
<path d="M5.05346 97.6541C4.81716 97.6541 4.61816 97.4581 4.61816 97.2253C4.61816 95.7059 5.91162 94.2847 7.45382 94.1254C7.88911 94.0764 8.32441 94.1254 8.73483 94.1744C9.25719 94.2356 9.75467 94.2846 10.19 94.1376C10.8989 93.8926 11.3466 93.0104 11.1103 92.2997C11.0357 92.0792 11.1601 91.8341 11.3839 91.7606C11.6078 91.6871 11.8565 91.8096 11.9312 92.0302C12.3291 93.1942 11.6451 94.5542 10.476 94.9463C9.85417 95.1546 9.23232 95.0933 8.63534 95.0321C8.24979 94.9953 7.88911 94.9463 7.54088 94.983C6.43398 95.0933 5.48876 96.1225 5.48876 97.2253C5.48876 97.4581 5.28977 97.6541 5.05346 97.6541Z" fill="#6B937E"/>
<path d="M106.006 17.0667C103.332 17.0667 101.168 14.9225 101.168 12.3004C101.168 9.66612 103.344 7.53418 106.006 7.53418C108.68 7.53418 110.844 9.67837 110.844 12.3004C110.844 14.9347 108.68 17.0667 106.006 17.0667ZM106.006 8.26933C103.742 8.26933 101.914 10.0827 101.914 12.3004C101.914 14.5304 103.755 16.3315 106.006 16.3315C108.27 16.3315 110.098 14.5181 110.098 12.3004C110.098 10.0705 108.257 8.26933 106.006 8.26933Z" fill="#FFDA90"/>
<path d="M9.90444 60.3425C7.71551 60.3425 5.93701 58.5904 5.93701 56.434C5.93701 54.2775 7.71551 52.5254 9.90444 52.5254C12.0934 52.5254 13.8719 54.2775 13.8719 56.434C13.8719 58.5904 12.0934 60.3425 9.90444 60.3425ZM9.90444 53.2605C8.12594 53.2605 6.68324 54.6818 6.68324 56.434C6.68324 58.1861 8.12594 59.6074 9.90444 59.6074C11.6829 59.6074 13.1256 58.1861 13.1256 56.434C13.1256 54.6818 11.6829 53.2605 9.90444 53.2605Z" fill="#FFDA90"/>
<path d="M127.361 32.4435L124.003 31.402L127.124 29.7969C127.249 29.7357 127.298 29.5764 127.236 29.4539C127.174 29.3313 127.012 29.2823 126.888 29.3436L123.766 30.9487L124.823 27.6405C124.861 27.5057 124.786 27.3587 124.649 27.3219C124.512 27.2852 124.363 27.3587 124.326 27.4935L123.269 30.8017L121.64 27.7263C121.577 27.6037 121.416 27.5547 121.291 27.616C121.167 27.6773 121.117 27.8365 121.179 27.9591L122.809 31.0345L119.451 29.993C119.314 29.9562 119.165 30.0297 119.127 30.1645C119.09 30.2993 119.165 30.4463 119.301 30.4831L122.659 31.5246L119.538 33.1296C119.413 33.1909 119.364 33.3502 119.426 33.4727C119.463 33.534 119.513 33.583 119.575 33.5952C119.637 33.6197 119.712 33.6075 119.774 33.583L122.896 31.9779L121.839 35.2861C121.801 35.4209 121.876 35.5679 122.013 35.6046C122.149 35.6414 122.299 35.5679 122.336 35.4331L123.393 32.1249L125.022 35.2003C125.06 35.2616 125.109 35.3106 125.172 35.3228C125.234 35.3473 125.308 35.3351 125.371 35.3106C125.495 35.2493 125.545 35.09 125.483 34.9675L123.841 31.8921L127.199 32.9336C127.336 32.9704 127.485 32.8968 127.522 32.7621C127.572 32.6273 127.485 32.4925 127.361 32.4435Z" fill="#FBB278"/>
<path d="M18.8846 13.4157H14.5565L17.616 10.4016C17.7403 10.279 17.7403 10.083 17.616 9.96046C17.4916 9.83793 17.2926 9.83793 17.1682 9.96046L14.1087 12.9746V8.69845C14.1087 8.52691 13.9719 8.37988 13.7854 8.37988C13.6112 8.37988 13.462 8.51466 13.462 8.69845V12.9623L10.4025 9.94821C10.2781 9.82568 10.0791 9.82568 9.95474 9.94821C9.83037 10.0707 9.83037 10.2668 9.95474 10.3893L13.0267 13.4157H8.68616C8.51204 13.4157 8.36279 13.5505 8.36279 13.7342C8.36279 13.9058 8.4996 14.0528 8.68616 14.0528H13.0267L9.96718 17.0669C9.8428 17.1895 9.8428 17.3855 9.96718 17.508C10.0294 17.5693 10.1164 17.5938 10.191 17.5938C10.2781 17.5938 10.3527 17.5693 10.4149 17.508L13.4744 14.4939V18.7455C13.4744 18.9171 13.6112 19.0641 13.7978 19.0641C13.9719 19.0641 14.1212 18.9293 14.1212 18.7455V14.4816L17.1807 17.4958C17.2429 17.557 17.3299 17.5815 17.4045 17.5815C17.4916 17.5815 17.5662 17.557 17.6284 17.4958C17.7528 17.3732 17.7528 17.1772 17.6284 17.0547L14.5689 14.0406H18.897C19.0711 14.0406 19.2204 13.9058 19.2204 13.722C19.2079 13.5505 19.0587 13.4157 18.8846 13.4157Z" fill="#FBB278"/>
<path d="M23.5241 95.5444C22.5913 95.5444 21.758 95.3116 20.9869 94.846C19.4945 93.9516 18.7483 92.4568 18.997 90.864C19.2706 89.0506 20.9123 86.7839 24.6932 85.8404C26.4219 85.4116 28.4865 85.0685 31.4341 86.2448C30.0287 84.6397 28.7601 83.0346 27.6408 81.4295C26.5961 81.307 25.0414 81.2947 23.2629 81.7726C18.0642 83.1816 15.2659 82.9243 13.6242 80.9027C12.5795 79.6039 12.3929 78.0111 13.1516 76.6265C13.9724 75.1317 16.0867 73.6491 19.6064 73.9555C20.9621 74.078 22.5043 74.323 24.2828 75.5483C23.5241 73.8574 22.8027 71.9093 22.1187 69.7528C21.4595 69.4833 20.4895 69.226 19.3701 69.4343C15.2783 70.1817 13.1391 69.7896 12.0074 68.0865C11.2487 66.947 11.2363 65.6728 11.9576 64.6803C13.0894 63.112 15.3281 63.0017 17.0444 63.4183C18.5741 63.7859 20.6014 64.6925 22.2431 66.8735C22.1187 64.2024 23.1137 62.3156 24.0589 61.1393C25.3648 59.522 27.0811 58.7991 28.5362 59.2279C29.6804 59.571 30.4391 60.5512 30.551 61.85C30.7127 63.7859 29.3695 65.2684 25.8871 66.9838C25.2653 67.2901 24.7429 67.7434 24.3201 68.3193C25.0041 70.537 25.713 72.5219 26.4592 74.225C26.2976 70.5983 27.4666 68.6501 28.6979 66.9715C30.7127 64.2392 33.4738 62.8424 35.7373 63.3938C37.2049 63.7491 38.1874 64.8763 38.4237 66.4692C38.8217 69.1157 36.9934 71.5907 32.143 75.0092C30.4764 76.1854 29.3695 77.4842 28.6979 78.4399C30.7127 81.6133 33.1628 84.4559 35.1652 86.5388C34.0334 82.5935 34.8418 80.1798 35.7249 78.2193C37.18 74.9724 39.7047 72.914 42.1673 72.9753C43.7592 73.0243 45.0154 73.9555 45.6248 75.5483C46.6322 78.1826 45.3138 81.1355 41.0852 85.7302C39.6674 87.2617 38.8341 88.83 38.374 89.8715C38.3366 89.945 38.2869 90.0063 38.2247 90.043L36.5208 91.0233C36.384 91.109 36.1975 91.0845 36.0731 90.9742C35.8617 90.7782 35.6627 90.5822 35.4512 90.3861C34.3568 90.6434 32.7773 91.1825 31.1605 92.2608C27.9019 94.4907 25.4892 95.5444 23.5241 95.5444ZM27.5537 86.159C26.5712 86.159 25.713 86.3305 24.8922 86.5388C21.472 87.3965 19.992 89.3814 19.7432 90.962C19.5442 92.273 20.1412 93.4615 21.3849 94.2089C23.4743 95.4709 26.1981 94.7358 30.7625 91.6849C32.5783 90.4719 34.3443 89.9083 35.5134 89.651C35.6378 89.6265 35.7622 89.6632 35.8492 89.749C36.0358 89.9205 36.2223 90.1043 36.4089 90.2758L37.7645 89.4917C38.2496 88.4012 39.1326 86.8206 40.5629 85.2646C44.5676 80.9027 45.8486 78.1703 44.9532 75.8301C44.4557 74.5313 43.4483 73.7717 42.1797 73.7349C40.5504 73.6859 38.063 74.9234 36.4462 78.5379C35.4761 80.7066 34.6801 83.2184 36.4089 87.8376C36.4711 87.9969 36.4089 88.1807 36.2597 88.2787C36.1104 88.3767 35.9239 88.3522 35.7995 88.2297C33.5857 86.0365 30.4391 82.5935 27.9766 78.6482C27.9019 78.5257 27.9019 78.3664 27.989 78.2561C28.673 77.2391 29.8919 75.7566 31.7574 74.4456C36.3467 71.2109 38.0755 68.9319 37.7272 66.6039C37.5407 65.3174 36.7571 64.4107 35.6005 64.1289C34.0956 63.7614 31.5584 64.4107 29.3322 67.4249C27.9641 69.2872 26.6955 71.4927 27.4542 76.3079C27.4791 76.4917 27.3796 76.6633 27.2055 76.7123C27.0313 76.7735 26.8448 76.6878 26.7577 76.5285C25.6384 74.372 24.5688 71.6275 23.5863 68.3806C23.549 68.2825 23.5738 68.16 23.636 68.0742C24.1459 67.3146 24.7927 66.7265 25.5886 66.3344C28.7477 64.7783 29.9789 63.504 29.8421 61.9112C29.7551 60.9188 29.2078 60.1836 28.3621 59.9263C26.9692 59.5097 25.5513 60.5144 24.6807 61.5804C23.6485 62.8669 22.554 65.0846 23.2256 68.3806C23.2629 68.5643 23.1634 68.7359 22.9893 68.7971C22.8152 68.8584 22.6162 68.7849 22.5291 68.6256C20.9123 65.636 18.5741 64.521 16.8951 64.1044C14.6316 63.5531 13.1889 64.2392 12.5919 65.0724C12.0571 65.8198 12.082 66.7877 12.6665 67.6577C13.6118 69.079 15.5146 69.373 19.2706 68.6869C20.6511 68.4296 21.8575 68.7849 22.6038 69.128C22.7032 69.177 22.7779 69.2505 22.8027 69.3485C23.6982 72.2034 24.6683 74.6661 25.6757 76.6755C25.7503 76.8348 25.713 77.0309 25.5638 77.1289C25.4145 77.2391 25.2155 77.2269 25.0912 77.1044C22.9396 75.1072 21.1859 74.8009 19.5691 74.6539C16.4225 74.372 14.5445 75.6463 13.8356 76.9328C13.2262 78.0601 13.363 79.3221 14.2336 80.4003C15.6639 82.1647 18.2259 82.3362 23.0888 81.0252C25.0787 80.4861 26.8199 80.5351 27.9268 80.6821C28.0388 80.6944 28.1258 80.7556 28.188 80.8414C29.6183 82.9121 31.3097 85.0072 33.2374 87.0657C33.3618 87.2005 33.3743 87.3965 33.2623 87.5435C33.1504 87.6906 32.9514 87.7273 32.7897 87.6415C30.6257 86.5266 28.9591 86.159 27.5537 86.159Z" fill="#FBB278"/>
<path d="M116.253 95.5461C114.437 95.5461 112.124 94.8232 109.052 93.3284C107.286 92.4707 105.657 92.1644 104.537 92.0664C104.363 92.2869 104.177 92.5197 104.003 92.728C103.903 92.8506 103.729 92.8996 103.567 92.8383L101.739 92.1032C101.664 92.0786 101.602 92.0174 101.565 91.9561C100.968 90.9882 99.9108 89.5546 98.294 88.2313C93.456 84.2615 91.7397 81.517 92.3615 78.7724C92.7346 77.1183 93.854 76.0156 95.421 75.746C97.8463 75.3417 100.645 77.0325 102.535 80.0467C103.679 81.8723 104.823 84.1513 104.264 88.2191C105.955 85.8789 107.97 82.73 109.512 79.3115C108.716 78.4661 107.423 77.3143 105.607 76.3831C100.321 73.6631 98.1696 71.4576 98.1821 68.7866C98.1945 67.1692 99.0029 65.9195 100.408 65.3681C102.572 64.5104 105.52 65.5274 107.895 67.9411C109.351 69.4237 110.781 71.2003 111.141 74.8148C111.689 72.8544 112.149 70.5877 112.522 68.0392C111.95 67.402 111.278 66.9242 110.52 66.6056C106.415 64.927 104.699 63.3955 104.6 61.3125C104.537 59.9892 105.159 58.9233 106.254 58.4454C107.485 57.9063 109.562 58.0901 111.676 60.1853C113.218 61.7169 114.176 63.6283 114.475 65.7602C115.519 64.2409 116.937 63.0891 118.641 62.4153C120.283 61.7659 122.521 61.5698 123.865 62.9666C124.723 63.8611 124.884 65.1231 124.3 66.3483C123.417 68.1985 121.365 68.8846 117.198 68.7008C116.427 68.664 115.656 68.8233 114.922 69.1786C114.537 71.6414 114.052 73.8591 113.505 75.7828C115.084 74.3247 116.589 73.8591 117.907 73.5651L117.994 73.9204L117.907 73.5651C121.34 72.7686 123.653 73.9571 124.673 75.3172C125.618 76.5792 125.668 78.1843 124.81 79.6056C123.467 81.8355 120.743 82.4727 115.395 81.7988C113.567 81.566 112.025 81.7988 111.017 82.0561C110.147 83.7959 109.114 85.5603 107.945 87.3369C110.706 85.7686 112.796 85.8176 114.562 86.0136C118.442 86.4302 120.382 88.4519 120.917 90.204C121.39 91.7478 120.855 93.3284 119.512 94.4189C118.604 95.1663 117.559 95.5461 116.253 95.5461ZM104.363 91.3067C104.376 91.3067 104.388 91.3067 104.388 91.3067C105.57 91.4048 107.398 91.7111 109.375 92.6668C114.325 95.056 117.124 95.4113 119.014 93.8798C120.146 92.9608 120.569 91.7111 120.183 90.4368C119.723 88.9052 117.982 87.1409 114.462 86.761C112.423 86.5405 110.147 86.5282 106.813 88.9543C106.664 89.0645 106.465 89.0523 106.328 88.9175C106.192 88.795 106.179 88.5989 106.279 88.4396C107.895 86.1362 109.276 83.8204 110.395 81.5782C110.445 81.4802 110.532 81.4189 110.632 81.3822C111.701 81.0881 113.417 80.7941 115.47 81.0636C120.482 81.7007 122.994 81.1739 124.151 79.2257C124.86 78.0372 124.822 76.7752 124.051 75.746C123.168 74.5698 121.141 73.5651 118.056 74.2757C116.477 74.6433 114.786 75.1824 112.932 77.4614C112.82 77.5961 112.622 77.6452 112.46 77.5594C112.298 77.4736 112.224 77.2898 112.286 77.1183C113.057 74.8516 113.691 72.0825 114.189 68.8846C114.201 68.7743 114.276 68.664 114.388 68.615C115.295 68.1494 116.241 67.9289 117.211 67.9657C121.017 68.1372 122.87 67.5736 123.603 66.042C124.051 65.0986 123.939 64.1306 123.305 63.469C122.596 62.7338 121.066 62.2437 118.902 63.1014C117.062 63.8243 115.569 65.1598 114.587 66.9609C114.499 67.1325 114.288 67.1937 114.114 67.1325C114.089 67.1202 114.052 67.108 114.027 67.0957C113.89 67.0345 113.803 66.9119 113.803 66.7772C113.704 64.4369 112.771 62.3417 111.129 60.7121C109.276 58.8743 107.497 58.7027 106.54 59.1193C105.719 59.4746 105.284 60.2588 105.333 61.2758C105.42 63.0279 107 64.3634 110.793 65.9195C111.714 66.2993 112.522 66.8874 113.194 67.6838C113.256 67.7696 113.293 67.8676 113.281 67.9657C112.758 71.5802 112.049 74.6555 111.204 77.106C111.141 77.2776 110.967 77.3756 110.781 77.3511C110.594 77.3143 110.47 77.1673 110.47 76.9835C110.545 72.107 108.977 70.0976 107.348 68.4435C104.724 65.7602 102.112 65.4661 100.682 66.042C99.575 66.4831 98.9283 67.4756 98.9283 68.7866C98.9158 71.1391 100.956 73.1607 105.955 75.7338C107.995 76.7875 109.4 78.0863 110.234 78.9929C110.333 79.1032 110.358 79.2502 110.296 79.385C108.418 83.6367 105.781 87.4717 103.903 89.9467C103.804 90.0815 103.605 90.1305 103.455 90.057C103.294 89.9835 103.207 89.8119 103.244 89.6404C104.314 84.8251 103.157 82.4482 101.901 80.4387C99.7864 77.0815 97.1622 76.1994 95.5454 76.4689C94.2893 76.6772 93.3938 77.5716 93.0953 78.9317C92.5481 81.3699 94.1898 83.9062 98.779 87.6677C100.421 89.0155 101.503 90.4613 102.149 91.4783L103.605 92.0664C103.766 91.8704 103.928 91.6743 104.077 91.466C104.139 91.3557 104.251 91.3067 104.363 91.3067Z" fill="#FBB278"/>
<path d="M62.513 36.2764C62.3762 36.2764 62.2269 36.2396 62.115 36.1783L57.8864 33.8871C57.6874 33.7768 57.5506 33.6053 57.4884 33.397C57.4262 33.1887 57.4511 32.9559 57.563 32.7721C57.7869 32.3678 58.2968 32.2208 58.7072 32.4413L62.9358 34.7325C63.1348 34.8428 63.2716 35.0143 63.3338 35.2226C63.396 35.4309 63.3711 35.6637 63.2592 35.8475C63.0975 36.1171 62.8239 36.2764 62.513 36.2764ZM58.2844 32.9559C58.2097 32.9559 58.1351 32.9927 58.0978 33.0662C58.0729 33.1152 58.0605 33.1765 58.0854 33.2255C58.0978 33.2745 58.1351 33.3235 58.1849 33.348L62.4135 35.6392C62.513 35.7005 62.6498 35.6515 62.712 35.5535C62.7368 35.5044 62.7493 35.4432 62.7244 35.3942C62.712 35.3452 62.6746 35.2962 62.6249 35.2716L58.3963 32.9804C58.359 32.9559 58.3217 32.9559 58.2844 32.9559Z" fill="#9FAB85"/>
<path d="M65.3119 33.326C65.0383 33.326 64.7896 33.1912 64.6279 32.9829L61.4813 28.6455C61.3569 28.4618 61.2947 28.2412 61.332 28.0329C61.3694 27.8124 61.4937 27.6286 61.6678 27.4938C62.041 27.2242 62.5633 27.31 62.8369 27.6898L65.9835 32.0272C66.1079 32.211 66.1701 32.4316 66.1328 32.6399C66.0954 32.8604 65.9711 33.0442 65.7969 33.179C65.6477 33.2647 65.486 33.326 65.3119 33.326ZM62.1529 27.9349C62.1031 27.9349 62.0658 27.9471 62.0285 27.9717C61.9788 28.0084 61.9539 28.0574 61.9415 28.1064C61.929 28.1677 61.9415 28.2167 61.9788 28.2657L65.1254 32.6031C65.1627 32.6644 65.2373 32.6889 65.2995 32.6889C65.3368 32.6889 65.3741 32.6766 65.4238 32.6521C65.4736 32.6154 65.4985 32.5664 65.5109 32.5173C65.5233 32.4561 65.5109 32.4071 65.4736 32.3581L62.327 28.0207C62.2897 27.9717 62.2275 27.9349 62.1529 27.9349Z" fill="#9FAB85"/>
<path d="M68.5323 31.8056C68.0597 31.8056 67.6866 31.438 67.699 30.9847L67.7239 26.3287C67.7239 25.8754 68.097 25.5078 68.5572 25.5078C69.0298 25.5078 69.4029 25.8876 69.3905 26.341L69.3656 30.9847C69.3656 31.438 68.9925 31.8056 68.5323 31.8056ZM68.5572 26.1204C68.4328 26.1204 68.3333 26.2185 68.3333 26.3287L68.3085 30.9724C68.3085 31.095 68.4079 31.193 68.5199 31.193V31.4993V31.193C68.6318 31.193 68.7313 31.095 68.7313 30.9724L68.7562 26.3287C68.7686 26.2185 68.6691 26.1204 68.5572 26.1204Z" fill="#9FAB85"/>
<path d="M35.9352 122.306H104.463L111.105 68.3582C111.291 66.8511 110.533 65.3685 109.177 64.6456C83.5816 50.8248 57.4264 50.6165 30.6867 64.6334C29.2938 65.3686 28.5102 66.8634 28.7217 68.4072L35.9352 122.306Z" fill="white"/>
<path d="M35.4388 122.306H36.4462L29.2078 68.3454C29.0337 67.0098 29.7177 65.6988 30.9117 65.0739C44.0452 58.188 57.2658 54.696 70.2004 54.696C70.2501 54.696 70.2999 54.696 70.3496 54.696C83.2345 54.7205 96.2188 58.2125 108.929 65.0739C110.111 65.7111 110.77 66.9731 110.608 68.2963L103.955 122.306H104.962L111.591 68.4189C111.802 66.6913 110.944 65.0494 109.402 64.2162C96.5421 57.2691 83.3961 53.7403 70.3496 53.7158C70.2999 53.7158 70.2501 53.7158 70.2004 53.7158C57.0917 53.7158 43.7219 57.2445 30.4391 64.2162C28.872 65.0372 27.9765 66.7525 28.2128 68.4924L35.4388 122.306Z" fill="#9FAB85"/>
<path d="M89.565 117.513H48.0376V72.0076C61.8801 68.6381 75.7225 68.6381 89.565 72.0076V117.513Z" fill="#FBB278"/>
<path d="M55.8735 70.4636L64.6168 80.1309L68.7957 76.0508L65.3506 69.4834L55.8735 70.4636Z" fill="white"/>
<path d="M74.9647 69.4844L68.7959 76.0517L73.1986 80.1318L82.8 70.4646L74.9647 69.4844Z" fill="white"/>
<path d="M48.0364 72.0205C35.8605 76.0271 28.647 87.5935 28.647 98.633V99.2456C29.5051 114.623 38.9324 117.526 42.4148 117.526C44.9147 117.526 48.0364 116.375 48.0364 114.941V72.0205Z" fill="#FFDA90"/>
<path d="M113.989 96.806C112.148 84.676 101.738 76.0134 89.5625 72.0068V107.453C89.5625 107.453 91.4032 109.683 95.6815 114.205C99.4624 118.199 114.959 121.777 115.817 106.4L113.989 96.806Z" fill="#FFDA90"/>
<path d="M93.5308 122.303C91.7275 114.621 89.5634 107.453 89.5634 107.453H48.036C48.036 107.453 45.8844 113.751 44.5039 122.303H93.5308Z" fill="#FBB278"/>
<path d="M72.8102 72.9273L68.793 76.0517L65.1987 72.9273V64.8896H72.8102V72.9273Z" fill="#EB7962"/>
<path d="M65.8579 68.4459C66.5917 68.3111 67.3254 68.1395 68.0344 67.919C68.2209 67.8577 68.4075 67.8087 68.5816 67.7352C68.6686 67.6984 68.7557 67.6739 68.8428 67.6372C69.2532 67.4289 69.676 67.2451 70.0865 67.0123C70.2979 66.8898 70.5218 66.755 70.7208 66.6202C70.8203 66.559 70.9073 66.4854 71.0068 66.4242C71.1934 66.2649 71.3675 66.1179 71.5292 65.9463C71.6038 65.8728 71.666 65.7993 71.7406 65.7258C71.7406 65.7258 71.7406 65.7135 71.753 65.7135C71.8028 65.64 71.8525 65.5543 71.8898 65.4685V65.4562C71.8774 65.4317 71.8898 65.3582 71.9147 65.297C71.9147 65.0029 71.9893 64.7333 72.1137 64.4883H65.1738V68.5561C65.4226 68.5316 65.6464 68.4949 65.8579 68.4459Z" fill="#2C325A"/>
<path d="M78.2564 51.8181C78.7166 56.0207 76.4904 62.8454 73.207 64.9283C71.4285 66.0433 69.3266 66.6927 67.088 66.6927C64.2523 66.6927 59.2028 63.213 58.2328 60.3459C57.9094 59.3657 57.6606 56.9152 57.6606 55.2856C57.6606 53.9133 57.9094 52.8596 57.6731 52.0999C57.6731 52.0999 57.5736 49.8945 58.0586 48.6815C59.3894 45.3365 61.6405 41.673 61.6405 41.673C68.9038 39.9577 77.0003 40.46 78.2564 51.8181Z" fill="#EB7962"/>
<path d="M61.4054 56.1293C61.8175 56.1293 62.1516 55.5753 62.1516 54.8918C62.1516 54.2083 61.8175 53.6543 61.4054 53.6543C60.9933 53.6543 60.6592 54.2083 60.6592 54.8918C60.6592 55.5753 60.9933 56.1293 61.4054 56.1293Z" fill="#2C325A"/>
<path d="M70.2951 56.2748C70.7072 56.2748 71.0413 55.7208 71.0413 55.0373C71.0413 54.3539 70.7072 53.7998 70.2951 53.7998C69.8829 53.7998 69.5488 54.3539 69.5488 55.0373C69.5488 55.7208 69.8829 56.2748 70.2951 56.2748Z" fill="#2C325A"/>
<path d="M62.0397 50.5065H58.52C58.035 50.5065 57.6494 50.1144 57.6494 49.6488V49.22C57.6494 48.7421 58.0474 48.3623 58.52 48.3623H62.0397C62.5247 48.3623 62.9103 48.7544 62.9103 49.22V49.6488C62.9103 50.1144 62.5247 50.5065 62.0397 50.5065Z" fill="#2C325A"/>
<path d="M64.8867 52.1719C64.8867 54.0833 64.8867 56.0069 64.8867 57.9183" stroke="#2C325A" stroke-width="0.857678" stroke-miterlimit="10" stroke-linecap="round"/>
<path d="M64.2646 61.4842C64.2646 61.4842 64.7497 61.6802 65.7322 61.6435C67.063 61.5945 68.2445 60.9696 68.9907 59.6953" stroke="#2C325A" stroke-width="0.857678" stroke-miterlimit="10" stroke-linecap="round"/>
<path d="M80.9697 42.6512C77.6241 38.3751 72.6493 36.6475 70.5101 36.6475C67.9605 36.6475 65.6348 37.4684 64.0553 38.9754C56.7671 37.4194 50.6108 45.506 54.8145 52.0857H57.3392C57.3392 52.1102 57.3392 52.1224 57.3392 52.1469C57.4139 53.4825 57.2771 55.0753 56.394 56.3986C53.2723 61.1403 51.2326 68.161 53.3594 71.2854C55.909 75.0347 64.6896 73.9809 65.187 72.8782C65.7218 71.6775 65.299 67.4871 65.1746 66.3231C65.1746 66.3231 64.2045 65.98 63.0852 65.3429C62.0902 64.7793 61.0082 63.9339 60.262 63.2232C58.5705 61.6059 58.1601 60.6012 57.9113 58.8368C57.4139 55.4061 57.9113 53.7398 57.7372 52.1224L60.8962 52.0979C60.8962 52.0979 60.063 45.0895 63.4707 42.4552C67.9978 44.7219 68.1719 51.4608 68.1719 51.4608H76.1565C76.1565 52.1347 77.3381 55.8104 75.5844 58.4815C72.4627 63.2232 69.8509 69.1902 72.0647 72.2533C75.1864 76.554 83.2954 73.0498 83.7929 71.9348C89.713 58.8 85.0366 47.834 80.9697 42.6512Z" fill="#2C325A"/>
<path d="M49.7182 62.0349C48.8724 61.5081 47.7033 61.8266 47.1064 62.7456L44.9796 66.0415L47.1064 59.4251C47.4795 58.3959 47.0193 57.2932 46.0741 56.9501C45.1289 56.6193 44.2085 57.1707 43.6862 58.2121L42.0569 61.8757L42.343 57.8936C42.4549 56.8031 41.746 55.8351 40.7386 55.7371C39.7436 55.6391 38.9725 56.3865 38.7238 57.526L37.0821 66.6051C37.0323 66.7767 37.0075 66.9727 36.9826 67.181L36.9702 67.23C36.8333 68.5165 37.0821 70.3789 37.7039 72.2781C38.1019 73.4911 39.8307 75.3289 40.1789 77.4731C36.0996 86.8586 34.3708 92.2129 31.6471 99.2827C27.9533 108.876 30.6148 115.003 35.1046 116.706C39.6317 118.409 44.5195 116.583 46.2482 111.474C49.4197 102.064 50.2032 84.8247 49.0963 77.6079C49.0839 77.5099 49.059 77.4119 49.0341 77.3139C50.738 74.0792 48.6859 71.1753 47.2556 69.607L50.1783 64.6937C50.7753 63.7503 50.5763 62.5618 49.7182 62.0349Z" fill="#EB7962"/>
<path d="M43.3623 68.566L47.1059 62.7461" stroke="#2C325A" stroke-width="0.857678" stroke-miterlimit="10" stroke-linecap="round"/>
<path d="M40.3032 65.8099L43.6861 58.2256" stroke="#2C325A" stroke-width="0.857678" stroke-miterlimit="10" stroke-linecap="round"/>
<path d="M38.8725 80.5264C35.6886 88.0862 34.0594 93.0117 31.6466 99.2727C27.9528 108.866 30.6143 114.993 35.1041 116.696C39.6312 118.399 44.519 116.573 46.2477 111.464C48.76 104.014 49.7798 91.6639 49.5311 83.2587C45.8497 83.1729 41.9445 82.597 38.8725 80.5264Z" fill="#FFDA90"/>
<path d="M38.6623 81.0273C35.1924 89.1753 34.1725 92.7285 31.6478 99.2714C30.9638 101.036 30.5036 102.678 30.23 104.209" stroke="#2C325A" stroke-width="0.857678" stroke-miterlimit="10" stroke-linecap="round"/>
<path d="M92.5641 122.306C98.4593 118.826 104.392 116.29 110.374 115.04V71.1514C97.7379 72.4501 86.3207 78.0741 76.2715 88.5745C75.9357 88.9421 75.7119 88.9175 75.3014 88.697C64.817 81.0759 51.385 79.7159 36.6968 81.0147L44.9923 122.306H92.5641Z" fill="white"/>
<path d="M44.4815 122.304H45.5013L37.3053 81.4662C53.9337 80.0695 65.9354 82.4955 75.0269 89.0996C75.0518 89.1118 75.0642 89.1241 75.0891 89.1363C75.5617 89.3936 76.0841 89.5407 76.6562 88.9035C81.5688 83.7697 86.9292 79.7141 92.6005 76.847C97.9858 74.1147 103.806 72.3871 109.888 71.701V114.646C104.043 115.92 98.0106 118.457 91.618 122.304H93.5457C99.4533 118.898 105.062 116.656 110.485 115.516C110.709 115.467 110.883 115.271 110.883 115.038V71.1496C110.883 71.0148 110.821 70.88 110.721 70.782C110.622 70.684 110.473 70.6472 110.336 70.6595C103.918 71.3211 97.7992 73.0978 92.1403 75.9648C86.3695 78.881 80.9221 83.0101 75.9224 88.2296C75.9224 88.2296 75.9224 88.2296 75.91 88.2419C75.8353 88.3277 75.798 88.3522 75.7731 88.3644C75.7483 88.3644 75.6985 88.3522 75.5742 88.2787C66.1966 81.4785 53.8217 79.0035 36.671 80.535C36.5342 80.5473 36.3974 80.6208 36.3228 80.7311C36.2357 80.8414 36.2108 80.9884 36.2357 81.1232L44.4815 122.304Z" fill="#9FAB85"/>
<path d="M53.9459 121.862C51.8192 121.862 49.6303 122.009 47.3916 122.291H60.1769C58.1497 122.009 56.0727 121.862 53.9459 121.862Z" fill="#9FAB85"/>
<path d="M82.6381 99.2835C82.7501 99.1487 83.3346 98.7812 83.4466 98.6464C87.6503 94.0149 93.2221 90.866 99.0178 88.5871C101.779 87.4966 104.639 86.6634 107.537 86.0385C107.525 85.5484 107.512 85.0583 107.5 84.556C107.438 81.162 107.45 77.7313 107.761 74.3496C107.288 74.4844 106.828 74.6192 106.356 74.7539C103.122 75.6974 99.9132 76.7021 96.7915 77.9519C92.6624 79.7162 88.7448 81.8849 85.1504 84.556C83.944 85.4994 82.862 86.4061 81.7427 87.4598L81.7676 88.1582C81.7924 88.1582 82.3397 95.6445 82.6381 99.2835Z" fill="#FBB278"/>
<path d="M69.2207 92.4703C68.7854 92.2742 68.3501 92.0782 67.9148 91.8944C67.7407 91.8209 67.0318 91.5513 67.7282 91.8086C67.5292 91.7351 67.3427 91.6493 67.1437 91.5758C63.624 90.1668 59.9924 89.0396 56.2861 88.2186C55.3907 88.0226 54.4828 87.8388 53.5749 87.6795C53.1147 87.5938 52.6421 87.5202 52.1819 87.4467C51.9456 87.41 51.7217 87.3732 51.4854 87.3487C51.3984 87.3365 51.3237 87.3242 51.2367 87.3119C49.4955 87.1036 47.7543 86.9444 46.0007 86.8954C44.3341 86.8464 42.6675 86.8709 41.001 87.0056C41.3243 88.672 41.6353 90.3383 41.9462 92.0047C43.6128 91.8331 45.2918 91.7964 46.9583 91.8821C53.9231 92.2497 60.6516 94.5409 66.8452 97.5918C68.3625 98.3392 69.8425 99.1356 71.3101 99.9688L70.6136 93.1196C69.9296 92.7766 69.9296 92.7888 69.2207 92.4703Z" fill="#FBB278"/>
<path d="M55.1646 96.5508C51.0107 95.399 46.7447 94.8477 42.541 95.2397C43.8345 102.15 45.1031 109.048 46.3965 115.959C46.7696 115.91 47.1303 115.873 47.5034 115.849C50.9112 115.542 54.3189 115.824 57.6894 116.351C60.836 116.841 63.796 117.748 66.7187 119.034C68.2982 119.733 70.5617 121.436 72.0418 122.318L71.308 103.78C66.2336 100.704 60.8857 98.1313 55.1646 96.5508Z" fill="#FBB278"/>
<path d="M116.478 103.337C116.466 103.313 116.441 103.276 116.428 103.252C116.055 102.59 116.764 101.855 116.117 100.495C115.744 99.7228 116.528 99.4288 116.391 98.3138C116.242 97.1866 115.57 97.0763 115.433 96.4636C115.297 95.8388 115.72 95.655 115.384 94.442C115.16 93.6211 113.842 92.8859 112.859 92.9717L110.72 93.18V93.1555L110.384 93.2045L101.889 94.589C100.783 94.7238 99.999 95.6427 100.123 96.6229C100.248 97.6031 101.255 98.2893 102.35 98.1422L111.068 97.2601L101.305 98.8161C100.173 98.9632 99.3772 99.9066 99.5016 100.936C99.6384 101.965 100.658 102.676 101.79 102.529L111.752 101.205V101.242L102.934 102.725C101.827 102.859 101.044 103.778 101.168 104.759C101.293 105.739 102.3 106.425 103.394 106.278L104.128 106.204C104.066 106.4 104.029 106.597 104.041 106.817C104.091 107.81 104.862 108.373 106.019 108.753C108.096 109.133 112.672 108.998 114.115 108.52C115.21 108.165 115.919 106.523 116.428 105.543C116.54 105.334 116.615 105.114 116.64 104.881C116.752 104.281 116.727 103.754 116.478 103.337Z" fill="#EB7962"/>
<path d="M104.664 106.524C104.465 106.524 104.279 106.39 104.241 106.181C104.192 105.948 104.341 105.728 104.577 105.679L112.239 104.098C112.475 104.049 112.699 104.196 112.748 104.429C112.798 104.662 112.649 104.882 112.413 104.931L104.751 106.512C104.727 106.512 104.689 106.524 104.664 106.524Z" fill="#2C325A"/>
<path d="M104.017 102.665C103.806 102.665 103.619 102.506 103.582 102.298C103.544 102.065 103.719 101.844 103.955 101.82L111.442 100.827C111.678 100.79 111.902 100.962 111.927 101.195C111.964 101.428 111.79 101.648 111.554 101.673L104.067 102.665C104.067 102.665 104.042 102.665 104.017 102.665Z" fill="#2C325A"/>
<path d="M102.697 98.5968C102.474 98.5968 102.287 98.4375 102.262 98.2169C102.237 97.9841 102.411 97.7759 102.648 97.7391L111.092 96.8324C111.329 96.8079 111.54 96.9794 111.577 97.2122C111.602 97.445 111.428 97.6533 111.192 97.6901L102.747 98.5968C102.722 98.5968 102.71 98.5968 102.697 98.5968Z" fill="#2C325A"/>
<path d="M83.2723 36.4877L82.4763 36.6715C81.1704 36.9656 79.8645 36.1569 79.566 34.8581L74.0439 10.7941L79.5909 9.55664L85.1005 33.6206C85.399 34.9194 84.5782 36.1937 83.2723 36.4877Z" fill="white" stroke="#8FC4A8" stroke-width="0.735152" stroke-miterlimit="10" stroke-linecap="round" stroke-linejoin="round"/>
<path d="M97.724 29.4795C86.5928 27.3598 71.7305 30.0677 63.3604 38.8282L77.7749 40.6784C73.8697 34.7114 81.1578 31.636 98.9926 31.2807L97.724 29.4795Z" fill="#2C325A"/>
<path d="M80.9467 38.3622L80.1507 38.546C78.8449 38.8401 77.539 38.0314 77.2405 36.7326L71.4199 11.3576L76.9669 10.1201L82.7874 35.4951C83.0859 36.7816 82.265 38.0682 80.9467 38.3622Z" fill="white" stroke="#8FC4A8" stroke-width="0.735152" stroke-miterlimit="10" stroke-linecap="round" stroke-linejoin="round"/>
<path d="M76.8804 10.1201L82.7009 35.4951C82.7382 35.6544 82.7631 36.022 82.7631 36.1813" stroke="#2C325A" stroke-width="0.857678" stroke-miterlimit="10" stroke-linecap="round"/>
<path d="M86.5176 0H74.18C74.0059 0.330819 73.7945 0.637132 73.5706 0.906688H73.5582C69.7151 3.03863 66.2203 6.33456 67.7128 11.4806C67.4889 12.0197 67.3023 12.5711 67.1655 13.147C66.9417 14.0292 67.464 14.9236 68.347 15.1809C68.8072 15.2789 69.1555 15.2912 69.4166 15.2299C69.1928 15.7813 69.0062 16.3449 68.8445 16.933C68.6207 17.8152 69.143 18.7096 70.0261 18.9669C70.822 19.1997 71.6926 18.8322 72.0533 18.097C73.3094 15.4995 75.2869 13.8209 77.849 12.8529C79.6523 12.1913 80.7468 12.9387 81.3687 15.3524L82.0403 18.2685C84.0551 15.5852 85.2739 10.5617 84.2541 5.85671C84.2914 3.98208 85.162 2.04617 86.5176 0Z" fill="#EB7962"/>
<path d="M72.6888 10.5762C71.4451 12.0342 70.4252 13.578 69.7163 15.2689" stroke="#2C325A" stroke-width="0.857678" stroke-miterlimit="10" stroke-linecap="round"/>
<path d="M70.2622 7.69629C69.2672 8.99506 68.4464 10.3551 67.8867 11.8376" stroke="#2C325A" stroke-width="0.857678" stroke-miterlimit="10" stroke-linecap="round"/>
<path d="M120.569 46.4586H103.045C103.045 46.4586 103.306 47.6226 101.789 47.8432C101.739 47.8554 101.69 47.8554 101.652 47.8554C100.471 47.9535 99.538 46.8752 99.7619 45.7235C100.371 42.6113 101.802 39.0581 103.045 38.4455C104.438 37.7593 112.149 36.6566 114.562 38.0412C117.646 39.83 120.569 46.4586 120.569 46.4586Z" fill="#EB7962"/>
<path d="M110.059 47.0091C109.86 47.0091 109.649 46.9846 109.425 46.9356C108.691 46.7885 107.721 46.421 107.199 45.5143L101.888 36.2269L103.791 34.9648L110.93 43.3946C111.465 44.0317 111.701 44.8404 111.552 45.6123C111.403 46.5557 110.905 47.0091 110.059 47.0091Z" fill="white"/>
<path d="M103.73 35.4665L110.657 43.639C111.13 44.1903 111.329 44.8887 111.205 45.5626C111.031 46.5183 110.533 46.6531 110.06 46.6531C109.899 46.6531 109.7 46.6286 109.501 46.5918C108.854 46.4571 107.984 46.1385 107.536 45.3543L102.399 36.361L103.73 35.4665ZM103.879 34.4863L101.404 36.1159L106.889 45.6974C107.399 46.5918 108.332 47.0819 109.364 47.3025C109.625 47.3515 109.862 47.376 110.073 47.376C111.143 47.376 111.752 46.7511 111.951 45.6851C112.113 44.7907 111.839 43.8595 111.242 43.1611L103.879 34.4863Z" fill="#6B937E"/>
<path d="M98.9796 37.0137L97.7856 39.4519" stroke="#6B937E" stroke-width="0.735152" stroke-miterlimit="10" stroke-linecap="round" stroke-linejoin="round"/>
<path d="M97.535 36.2881L95.6445 38.5303" stroke="#6B937E" stroke-width="0.735152" stroke-miterlimit="10" stroke-linecap="round" stroke-linejoin="round"/>
<path d="M95.9561 35.04L93.8169 36.8534" stroke="#6B937E" stroke-width="0.735152" stroke-miterlimit="10" stroke-linecap="round" stroke-linejoin="round"/>
<path d="M94.7255 33.5215L92.4619 34.7345" stroke="#6B937E" stroke-width="0.735152" stroke-miterlimit="10" stroke-linecap="round" stroke-linejoin="round"/>
<path d="M93.9644 32.0381L91.6387 32.5527" stroke="#6B937E" stroke-width="0.735152" stroke-miterlimit="10" stroke-linecap="round" stroke-linejoin="round"/>
<path d="M92.8096 30.1123L90.9316 30.2226" stroke="#6B937E" stroke-width="0.735152" stroke-miterlimit="10" stroke-linecap="round" stroke-linejoin="round"/>
<path d="M92.088 27.9715L90.21 27.751" stroke="#6B937E" stroke-width="0.735152" stroke-miterlimit="10" stroke-linecap="round" stroke-linejoin="round"/>
<path d="M92.2007 26.2665L90.6958 25.3721" stroke="#6B937E" stroke-width="0.735152" stroke-miterlimit="10" stroke-linecap="round" stroke-linejoin="round"/>
<path d="M101.403 37.6974C99.0522 37.6974 95.6071 36.1046 93.5923 33.0415C91.876 30.4439 91.1795 27.5891 91.7516 25.5674C92.0626 24.5015 92.6968 23.7418 93.6545 23.3007C94.0027 23.1414 94.3759 23.0557 94.749 23.0557C96.515 23.0557 98.6542 24.8813 100.93 28.3365C102.398 30.5542 103.355 32.4411 103.778 33.9359C104.238 35.59 104.039 36.705 103.169 37.2686C102.734 37.5504 102.124 37.6974 101.403 37.6974Z" fill="white"/>
<path d="M94.751 22.6885V23.4236C95.8827 23.4236 97.8229 24.3058 100.621 28.5329C102.064 30.7139 103.009 32.564 103.42 34.0343C103.631 34.8062 103.693 35.4434 103.606 35.9457C103.519 36.4113 103.32 36.7299 102.959 36.9627C102.586 37.2077 102.039 37.3303 101.392 37.3303C100.236 37.3303 98.8179 36.9137 97.512 36.1785C96.032 35.3453 94.7883 34.1936 93.8928 32.8458C92.2387 30.3341 91.5547 27.5895 92.1019 25.6781C92.3755 24.7224 92.9476 24.0363 93.8058 23.6319C94.1167 23.4849 94.4152 23.4236 94.751 23.4236V22.6885ZM94.751 22.6885C94.3281 22.6885 93.9053 22.7742 93.4948 22.9703C90.2861 24.4528 90.597 29.2068 93.271 33.2502C95.3231 36.3501 98.8676 38.0654 101.392 38.0654C102.163 38.0654 102.848 37.9061 103.357 37.5753C105.559 36.1663 103.905 32.1719 101.231 28.1286C99.0418 24.7837 96.8031 22.6885 94.751 22.6885Z" fill="#6B937E"/>
<path d="M120.569 46.4585L115.084 43.8487L111.166 41.9863L110.992 42.4274C109.923 43.4321 104.873 44.8902 103.306 45.3925C101.926 45.8336 101.863 47.8185 103.095 48.6395C104.077 49.2888 106.08 49.3869 108.169 49.2766C111.179 49.6809 112.398 52.4255 115.644 52.0947L135.157 71.1841V52.3765L120.569 46.4585Z" fill="#EB7962"/>
<path d="M111.167 41.9854L110.993 42.4264C109.923 43.4311 104.873 44.8892 103.306 45.3916C102.274 45.7224 101.976 46.9231 102.411 47.8421" stroke="#2C325A" stroke-width="0.857678" stroke-miterlimit="10" stroke-linecap="round"/>
<path d="M10.3921 30.4084L27.7294 32.9447C27.7294 32.9447 27.3065 34.0597 28.7616 34.4885C28.8114 34.5008 28.8487 34.513 28.8985 34.5253C30.0551 34.7948 31.1371 33.8636 31.0874 32.6996C30.9506 29.5262 30.0675 25.8137 28.9233 25.0295C27.6547 24.1474 20.1801 21.9419 17.5932 22.9711C14.26 24.2699 10.3921 30.4084 10.3921 30.4084Z" fill="#EB7962"/>
<path d="M33.0513 27.3813L36.2476 23.3135L47.7021 32.4049C47.8141 33.2503 47.6026 34.0589 47.1052 34.7083C46.5455 35.4312 45.6625 35.9091 44.6177 36.0561L33.0513 27.3813Z" fill="white"/>
<path d="M36.3072 23.8413L47.3514 32.6018C47.4011 33.3002 47.2145 33.9619 46.8041 34.501C46.3315 35.1136 45.5977 35.5302 44.7023 35.6772L33.5711 27.321L36.3072 23.8413ZM36.1829 22.7998L32.5264 27.4558L44.5033 36.4491C47.0031 36.1796 48.3961 34.2804 48.0478 32.222L36.1829 22.7998Z" fill="#6B937E"/>
<path d="M18.3386 39.1211C18.2888 39.1211 18.2515 39.1211 18.2018 39.1211C16.6347 39.0843 15.6522 38.3492 15.2915 36.9279C15.0676 36.0212 15.2666 35.188 15.8636 34.6244L23.4751 27.3954C23.5497 27.3219 23.587 27.2239 23.587 27.1259C23.587 27.0278 23.5373 26.9298 23.4627 26.8563C22.9527 26.4152 22.4677 25.9741 22.0448 25.582L21.7215 25.288C21.3235 24.9204 20.826 24.4426 20.5026 24.1362C24.6069 21.3549 27.3306 17.4096 29.5444 14.2117C29.8802 13.7216 30.2035 13.2682 30.5145 12.8271C30.8503 13.0967 31.3975 13.5255 31.7955 13.9054C31.8701 13.9789 31.9945 14.0892 32.1686 14.2362C33.1511 15.0816 35.4396 17.0665 36.8823 19.5905C38.6359 22.6782 38.4493 25.4595 36.335 27.8733C34.7306 29.6989 32.9521 30.6301 31.0493 30.6301C29.7185 30.6301 28.3256 30.2012 26.7958 29.3068C26.7336 29.2701 26.6714 29.2578 26.6092 29.2578C26.4849 29.2578 26.3605 29.3191 26.2983 29.4293L20.7763 38.1286C20.2415 38.9496 19.1594 39.1211 18.3386 39.1211Z" fill="white"/>
<path d="M30.5991 13.3525C30.8976 13.5976 31.2583 13.8917 31.5319 14.1612C31.6189 14.247 31.7433 14.3573 31.9174 14.5043C32.8875 15.3375 35.1386 17.2856 36.544 19.7606C37.3027 21.0961 37.6882 22.3949 37.6882 23.5957C37.6882 25.017 37.1285 26.377 36.0341 27.6267C34.4919 29.4034 32.8502 30.261 31.0344 30.261C29.7658 30.261 28.435 29.8445 26.9675 28.9868C26.8431 28.9133 26.7187 28.8888 26.5944 28.8888C26.3456 28.8888 26.0969 29.0113 25.9601 29.2318L20.438 37.9311C20.0151 38.605 19.0575 38.7521 18.3361 38.7521C18.2988 38.7521 18.2491 38.7521 18.2118 38.7521C16.8064 38.7153 15.9731 38.0904 15.6497 36.8284C15.4507 36.0565 15.6249 35.3458 16.1099 34.8803L23.7214 27.6513C23.8706 27.5042 23.9577 27.3082 23.9453 27.1121C23.9453 26.9038 23.8458 26.7078 23.6965 26.573C23.1866 26.1319 22.714 25.6908 22.2911 25.2988C22.1792 25.2007 22.0797 25.1027 21.9678 25.0047C21.6817 24.7474 21.3583 24.4288 21.0723 24.1593C25.0273 21.3535 27.6764 17.5184 29.8404 14.394C30.114 14.0509 30.3628 13.6956 30.5991 13.3525ZM30.4374 12.2988C28.0122 15.6683 24.9651 20.8143 19.9156 24.0858C19.9156 24.0858 20.8111 24.9679 21.4703 25.5683C21.9802 26.0339 22.5647 26.5853 23.2115 27.1489L15.6 34.3779C14.9284 35.015 14.6672 35.983 14.9284 37.0367C15.3139 38.5438 16.3711 39.475 18.1993 39.5117C18.2491 39.5117 18.2988 39.5117 18.3486 39.5117C19.5177 39.5117 20.5499 39.1931 21.0847 38.3477L26.6068 29.6484C27.9997 30.4571 29.5046 31.0207 31.0468 31.0207C32.8751 31.0207 34.7779 30.2365 36.6186 28.1414C42.3397 21.6353 32.9497 14.5165 32.0667 13.6711C31.4199 13.034 30.4374 12.2988 30.4374 12.2988Z" fill="#6B937E"/>
<path d="M30.4397 12.2988C30.4397 12.2988 26.6713 13.9039 23.7362 17.5184C20.6269 21.3535 19.918 24.0735 19.918 24.0735C20.7015 24.6616 24.7809 21.9293 26.8703 19.344C28.8851 16.8813 31.1238 13.0095 30.4397 12.2988Z" fill="#6B937E"/>
<path d="M27.6293 31.8409C26.1493 31.118 21.3735 28.9493 20.4655 27.7976L20.3536 27.3442C18.1647 26.9399 15.3539 27.1727 14.3341 27.8343L10.3915 30.4073L0.839844 32.7353V46.5317L14.4211 36.6806C17.5926 37.4771 19.197 34.9285 22.2316 34.9775C24.2713 35.3941 26.2737 35.5779 27.3432 35.0756C28.6989 34.4384 28.9228 32.4658 27.6293 31.8409Z" fill="#EB7962"/>
<path d="M28.2376 34.2292C28.6977 33.3961 28.5485 32.2811 27.6282 31.8277C25.9118 30.9946 19.7804 28.2132 20.3525 27.3311" stroke="#2C325A" stroke-width="0.857678" stroke-miterlimit="10" stroke-linecap="round"/>
<path d="M0.839844 122.302H135.16" stroke="#FBB278" stroke-width="0.980203" stroke-miterlimit="10"/>
<path d="M38.8075 111.975C31.3328 111.975 31.1835 122.475 31.3328 126.016C31.3701 126.727 31.8054 127.364 32.477 127.633C36.7056 129.349 40.9466 129.336 45.2125 127.633C45.8841 127.364 46.3319 126.727 46.3568 126.004C46.4936 122.451 46.2697 111.975 38.8075 111.975Z" fill="white" stroke="#9FAB85" stroke-width="0.735152" stroke-miterlimit="10"/>
<path d="M41.3832 112.476H36.3213V109.046C36.3213 108.715 36.5949 108.445 36.9307 108.445H40.7862C41.122 108.445 41.3956 108.715 41.3956 109.046V112.476H41.3832Z" fill="#9FAB85"/>
<path d="M28.4103 127.939C26.3955 128.883 24.1568 128.993 21.6196 127.939V123.455H28.4103V127.939Z" fill="#8FC4A8" stroke="#8FC4A8" stroke-width="0.735152" stroke-miterlimit="10" stroke-linecap="round" stroke-linejoin="round"/>
<path d="M27.6641 124.214C25.8607 124.79 24.0325 124.766 22.1918 124.19C21.1098 123.847 20.3138 122.916 20.1894 121.801L17.7144 99.4764C17.6771 99.1579 17.8761 98.8515 18.1871 98.7658C22.739 97.3567 27.291 97.3567 31.843 98.7658C32.1539 98.8638 32.3529 99.1701 32.3156 99.4887L29.6416 121.862C29.5172 122.952 28.7337 123.871 27.6641 124.214Z" fill="white" stroke="#8FC4A8" stroke-width="0.735152" stroke-miterlimit="10" stroke-linecap="round" stroke-linejoin="round"/>
<path d="M13.9717 109.597H9.24561V105.615C9.24561 104.843 9.8799 104.206 10.6759 104.206H12.5414C13.325 104.206 13.9717 104.831 13.9717 105.615V109.597Z" fill="#FBB278"/>
<path d="M15.7371 128.442C12.9885 129.054 10.2399 129.054 7.49128 128.442C6.27245 128.172 5.40186 127.094 5.40186 125.856V111.913C5.40186 110.626 6.45901 109.585 7.7649 109.585C10.3394 109.585 12.9014 109.585 15.4759 109.585C16.7818 109.585 17.8389 110.626 17.8389 111.913V125.856C17.8265 127.106 16.9559 128.172 15.7371 128.442Z" fill="white" stroke="#FBB278" stroke-width="0.735152" stroke-miterlimit="10" stroke-linecap="round" stroke-linejoin="round"/>
<path d="M129.228 98.4346H123.755C122.474 98.4346 121.442 99.4515 121.442 100.714V109.731H123.755V101.326C123.755 100.995 124.029 100.726 124.365 100.726H129.215V98.4346H129.228Z" fill="white" stroke="#9FAB85" stroke-width="0.735152" stroke-miterlimit="10" stroke-linecap="round" stroke-linejoin="round"/>
<path d="M126.353 127.939C123.841 128.907 121.329 128.895 118.804 127.939C117.996 127.633 117.436 126.897 117.361 126.04L115.745 108.31C115.707 107.845 116.118 107.465 116.578 107.551C120.446 108.249 126.44 107.698 128.667 107.453C129.114 107.404 129.5 107.771 129.463 108.225L127.784 126.064C127.709 126.897 127.149 127.62 126.353 127.939Z" fill="white" stroke="#9FAB85" stroke-width="0.735152" stroke-miterlimit="10"/>
</svg>
