<svg width="17" height="17" viewBox="0 0 17 17" fill="none" xmlns="http://www.w3.org/2000/svg">
<circle cx="8.80469" cy="8.5" r="8" fill="#BEFFC5"/>
<circle cx="8.80433" cy="8.49989" r="3.63636" fill="#0FF426"/>
</svg>
