<svg width="25" height="26" viewBox="0 0 25 26" fill="none" xmlns="http://www.w3.org/2000/svg">
<path d="M22.8716 11.808L12.9721 21.7074C12.9721 21.7074 8.37591 26.3036 4.13327 22.061C-0.109375 17.8184 4.48682 13.2222 4.48682 13.2222L14.7399 2.96912C14.7399 2.96912 17.5683 0.14069 20.3967 2.96912C23.2251 5.79754 20.3967 8.62597 20.3967 8.62597L10.4972 18.5255C10.4972 18.5255 9.08301 19.9397 7.6688 18.5255C6.25459 17.1113 7.6688 15.697 7.6688 15.697L16.8612 6.50465" stroke="#979797" stroke-width="2" stroke-linecap="round" stroke-linejoin="round"/>
</svg>
