<svg width="20" height="21" viewBox="0 0 20 21" fill="none"
    xmlns="http://www.w3.org/2000/svg">
    <path d="M4.7793 9.97949L8.52885 13.729L16.028 6.22993" stroke="white" stroke-width="2" stroke-linecap="round"/>
</svg>
