<svg width="25" height="25" viewBox="0 0 25 25" fill="none"
    xmlns="http://www.w3.org/2000/svg">
    <circle cx="12.8638" cy="12.666" r="11" stroke="#323232" stroke-width="2"/>
    <path d="M12.8638 7.66602V12.666" stroke="#323232" stroke-width="2" stroke-linecap="round" stroke-linejoin="round"/>
    <path d="M12.8638 16.666V17.166" stroke="#323232" stroke-width="2" stroke-linecap="round" stroke-linejoin="round"/>
</svg>
