<svg width="22" height="20" viewBox="0 0 22 20" fill="none" xmlns="http://www.w3.org/2000/svg">
<path d="M3.40453 3.1433C1.43547 5.11237 1.43547 8.30485 3.40453 10.2739L11.0419 17.9113L11.0944 17.8588L11.147 17.9113L18.7843 10.274C20.7534 8.30491 20.7534 5.11243 18.7843 3.14337C16.8153 1.1743 13.6228 1.1743 11.6537 3.14337L11.448 3.34907C11.2528 3.54433 10.9362 3.54433 10.7409 3.34907L10.5351 3.1433C8.56608 1.17424 5.37359 1.17424 3.40453 3.1433Z" stroke="white" stroke-width="2" stroke-linecap="round" stroke-linejoin="round"/>
</svg>
