<svg width="20" height="17" viewBox="0 0 20 17" fill="none" xmlns="http://www.w3.org/2000/svg">
<path d="M2.31029 2.1433C0.341229 4.11237 0.341231 7.30485 2.31029 9.27391L9.94766 16.9113L10.0002 16.8588L10.0527 16.9113L17.6901 9.27398C19.6591 7.30491 19.6591 4.11243 17.6901 2.14337C15.721 0.174302 12.5285 0.174304 10.5595 2.14337L10.3538 2.34907C10.1585 2.54433 9.84193 2.54433 9.64667 2.34907L9.4409 2.1433C7.47184 0.174238 4.27936 0.174239 2.31029 2.1433Z" fill="white"/>
</svg>
