<svg width="41" height="41" viewBox="0 0 41 41" fill="none" xmlns="http://www.w3.org/2000/svg">
<circle cx="20.2031" cy="20.5" r="20" fill="#00CB82"/>
<circle cx="20.2038" cy="20.5" r="9.16667" fill="white"/>
<path d="M20.2031 22.1667V21.8128C20.2031 20.8197 20.9882 20.0164 21.7873 19.4268C22.3745 18.9936 22.8637 18.2907 22.7031 17.1666C22.346 14.6666 18.9531 15.9166 18.9531 15.9166" stroke="#00CB82" stroke-width="2" stroke-linecap="round" stroke-linejoin="round"/>
<path d="M20.2031 24.6666V25.0833" stroke="#00CB82" stroke-width="2" stroke-linecap="round" stroke-linejoin="round"/>
</svg>
